%YAML 1.1
%TAG !u! tag:unity3d.com,2011:
--- !u!74 &7400000
AnimationClip:
  m_ObjectHideFlags: 0
  m_CorrespondingSourceObject: {fileID: 0}
  m_PrefabInstance: {fileID: 0}
  m_PrefabAsset: {fileID: 0}
  m_Name: newEdge_slide_forward
  serializedVersion: 6
  m_Legacy: 0
  m_Compressed: 0
  m_UseHighQualityCurve: 1
  m_RotationCurves: []
  m_CompressedRotationCurves: []
  m_EulerCurves: []
  m_PositionCurves:
  - curve:
      serializedVersion: 2
      m_Curve:
      - serializedVersion: 3
        time: 0
        value: {x: -0.034, y: 0.1, z: 0}
        inSlope: {x: 0, y: 0, z: 0}
        outSlope: {x: 0, y: 0, z: 0}
        tangentMode: 0
        weightedMode: 0
        inWeight: {x: 0.33333334, y: 0.33333334, z: 0.33333334}
        outWeight: {x: 0.33333334, y: 0.33333334, z: 0.33333334}
      - serializedVersion: 3
        time: 0.016666668
        value: {x: -0.067, y: -0.052, z: 0}
        inSlope: {x: 0, y: 0, z: 0}
        outSlope: {x: 0, y: 0, z: 0}
        tangentMode: 0
        weightedMode: 0
        inWeight: {x: 0.33333334, y: 0.33333334, z: 0.33333334}
        outWeight: {x: 0.33333334, y: 0.33333334, z: 0.33333334}
      - serializedVersion: 3
        time: 0.2
        value: {x: -0.044, y: -0.034, z: 0}
        inSlope: {x: 0.080000006, y: 0.35999998, z: 0}
        outSlope: {x: 0.080000006, y: 0.35999998, z: 0}
        tangentMode: 0
        weightedMode: 0
        inWeight: {x: 0.33333334, y: 0.33333334, z: 0.33333334}
        outWeight: {x: 0.33333334, y: 0.33333334, z: 0.33333334}
      - serializedVersion: 3
        time: 0.21666667
        value: {x: -0.04, y: 0.129, z: 0}
        inSlope: {x: 0, y: 0, z: 0}
        outSlope: {x: 0, y: 0, z: 0}
        tangentMode: 0
        weightedMode: 0
        inWeight: {x: 0.33333334, y: 0.33333334, z: 0.33333334}
        outWeight: {x: 0.33333334, y: 0.33333334, z: 0.33333334}
      m_PreInfinity: 2
      m_PostInfinity: 2
      m_RotationOrder: 4
    path: GunReference
  m_ScaleCurves: []
  m_FloatCurves: []
  m_PPtrCurves:
  - curve:
    - time: 0
      value: {fileID: 21300034, guid: c0ca79e038311324c9559c1c7d4241cb, type: 3}
    - time: 0.016666668
      value: {fileID: 21300036, guid: c0ca79e038311324c9559c1c7d4241cb, type: 3}
    - time: 0.033333335
      value: {fileID: 21300038, guid: c0ca79e038311324c9559c1c7d4241cb, type: 3}
    - time: 0.05
      value: {fileID: 21300040, guid: c0ca79e038311324c9559c1c7d4241cb, type: 3}
    - time: 0.06666667
      value: {fileID: 21300042, guid: c0ca79e038311324c9559c1c7d4241cb, type: 3}
    - time: 0.083333336
      value: {fileID: 21300044, guid: c0ca79e038311324c9559c1c7d4241cb, type: 3}
    - time: 0.1
      value: {fileID: 21300046, guid: c0ca79e038311324c9559c1c7d4241cb, type: 3}
    - time: 0.11666667
      value: {fileID: 21300048, guid: c0ca79e038311324c9559c1c7d4241cb, type: 3}
    - time: 0.13333334
      value: {fileID: 21300050, guid: c0ca79e038311324c9559c1c7d4241cb, type: 3}
    - time: 0.15
      value: {fileID: 21300052, guid: c0ca79e038311324c9559c1c7d4241cb, type: 3}
    - time: 0.16666667
      value: {fileID: 21300054, guid: c0ca79e038311324c9559c1c7d4241cb, type: 3}
    - time: 0.18333334
      value: {fileID: 21300056, guid: c0ca79e038311324c9559c1c7d4241cb, type: 3}
    - time: 0.2
      value: {fileID: 21300058, guid: c0ca79e038311324c9559c1c7d4241cb, type: 3}
    - time: 0.21666667
      value: {fileID: 21300060, guid: c0ca79e038311324c9559c1c7d4241cb, type: 3}
    attribute: m_Sprite
    path: 
    classID: 212
    script: {fileID: 0}
  m_SampleRate: 60
  m_WrapMode: 0
  m_Bounds:
    m_Center: {x: 0, y: 0, z: 0}
    m_Extent: {x: 0, y: 0, z: 0}
  m_ClipBindingConstant:
    genericBindings:
    - serializedVersion: 2
      path: 3039726972
      attribute: 1
      script: {fileID: 0}
      typeID: 4
      customType: 0
      isPPtrCurve: 0
    - serializedVersion: 2
      path: 0
      attribute: 0
      script: {fileID: 0}
      typeID: 212
      customType: 23
      isPPtrCurve: 1
    pptrCurveMapping:
    - {fileID: 21300034, guid: c0ca79e038311324c9559c1c7d4241cb, type: 3}
    - {fileID: 21300036, guid: c0ca79e038311324c9559c1c7d4241cb, type: 3}
    - {fileID: 21300038, guid: c0ca79e038311324c9559c1c7d4241cb, type: 3}
    - {fileID: 21300040, guid: c0ca79e038311324c9559c1c7d4241cb, type: 3}
    - {fileID: 21300042, guid: c0ca79e038311324c9559c1c7d4241cb, type: 3}
    - {fileID: 21300044, guid: c0ca79e038311324c9559c1c7d4241cb, type: 3}
    - {fileID: 21300046, guid: c0ca79e038311324c9559c1c7d4241cb, type: 3}
    - {fileID: 21300048, guid: c0ca79e038311324c9559c1c7d4241cb, type: 3}
    - {fileID: 21300050, guid: c0ca79e038311324c9559c1c7d4241cb, type: 3}
    - {fileID: 21300052, guid: c0ca79e038311324c9559c1c7d4241cb, type: 3}
    - {fileID: 21300054, guid: c0ca79e038311324c9559c1c7d4241cb, type: 3}
    - {fileID: 21300056, guid: c0ca79e038311324c9559c1c7d4241cb, type: 3}
    - {fileID: 21300058, guid: c0ca79e038311324c9559c1c7d4241cb, type: 3}
    - {fileID: 21300060, guid: c0ca79e038311324c9559c1c7d4241cb, type: 3}
  m_AnimationClipSettings:
    serializedVersion: 2
    m_AdditiveReferencePoseClip: {fileID: 0}
    m_AdditiveReferencePoseTime: 0
    m_StartTime: 0
    m_StopTime: 0.23333333
    m_OrientationOffsetY: 0
    m_Level: 0
    m_CycleOffset: 0
    m_HasAdditiveReferencePose: 0
    m_LoopTime: 0
    m_LoopBlend: 0
    m_LoopBlendOrientation: 0
    m_LoopBlendPositionY: 0
    m_LoopBlendPositionXZ: 0
    m_KeepOriginalOrientation: 0
    m_KeepOriginalPositionY: 1
    m_KeepOriginalPositionXZ: 0
    m_HeightFromFeet: 0
    m_Mirror: 0
  m_EditorCurves:
  - curve:
      serializedVersion: 2
      m_Curve:
      - serializedVersion: 3
        time: 0
        value: -0.034
        inSlope: 0
        outSlope: 0
        tangentMode: 136
        weightedMode: 0
        inWeight: 0.33333334
        outWeight: 0.33333334
      - serializedVersion: 3
        time: 0.016666668
        value: -0.067
        inSlope: 0
        outSlope: 0
        tangentMode: 136
        weightedMode: 0
        inWeight: 0.33333334
        outWeight: 0.33333334
      - serializedVersion: 3
        time: 0.2
        value: -0.044
        inSlope: 0.080000006
        outSlope: 0.080000006
        tangentMode: 136
        weightedMode: 0
        inWeight: 0.33333334
        outWeight: 0.33333334
      - serializedVersion: 3
        time: 0.21666667
        value: -0.04
        inSlope: 0
        outSlope: 0
        tangentMode: 136
        weightedMode: 0
        inWeight: 0.33333334
        outWeight: 0.33333334
      m_PreInfinity: 2
      m_PostInfinity: 2
      m_RotationOrder: 4
    attribute: m_LocalPosition.x
    path: GunReference
    classID: 4
    script: {fileID: 0}
  - curve:
      serializedVersion: 2
      m_Curve:
      - serializedVersion: 3
        time: 0
        value: 0.1
        inSlope: 0
        outSlope: 0
        tangentMode: 136
        weightedMode: 0
        inWeight: 0.33333334
        outWeight: 0.33333334
      - serializedVersion: 3
        time: 0.016666668
        value: -0.052
        inSlope: 0
        outSlope: 0
        tangentMode: 136
        weightedMode: 0
        inWeight: 0.33333334
        outWeight: 0.33333334
      - serializedVersion: 3
        time: 0.2
        value: -0.034
        inSlope: 0.35999998
        outSlope: 0.35999998
        tangentMode: 136
        weightedMode: 0
        inWeight: 0.33333334
        outWeight: 0.33333334
      - serializedVersion: 3
        time: 0.21666667
        value: 0.129
        inSlope: 0
        outSlope: 0
        tangentMode: 136
        weightedMode: 0
        inWeight: 0.33333334
        outWeight: 0.33333334
      m_PreInfinity: 2
      m_PostInfinity: 2
      m_RotationOrder: 4
    attribute: m_LocalPosition.y
    path: GunReference
    classID: 4
    script: {fileID: 0}
  - curve:
      serializedVersion: 2
      m_Curve:
      - serializedVersion: 3
        time: 0
        value: 0
        inSlope: 0
        outSlope: 0
        tangentMode: 136
        weightedMode: 0
        inWeight: 0.33333334
        outWeight: 0.33333334
      - serializedVersion: 3
        time: 0.016666668
        value: 0
        inSlope: 0
        outSlope: 0
        tangentMode: 136
        weightedMode: 0
        inWeight: 0.33333334
        outWeight: 0.33333334
      - serializedVersion: 3
        time: 0.2
        value: 0
        inSlope: 0
        outSlope: 0
        tangentMode: 136
        weightedMode: 0
        inWeight: 0.33333334
        outWeight: 0.33333334
      - serializedVersion: 3
        time: 0.21666667
        value: 0
        inSlope: 0
        outSlope: 0
        tangentMode: 136
        weightedMode: 0
        inWeight: 0.33333334
        outWeight: 0.33333334
      m_PreInfinity: 2
      m_PostInfinity: 2
      m_RotationOrder: 4
    attribute: m_LocalPosition.z
    path: GunReference
    classID: 4
    script: {fileID: 0}
  m_EulerEditorCurves: []
  m_HasGenericRootTransform: 0
  m_HasMotionFloatCurves: 0
  m_Events: []
