%YAML 1.1
%TAG !u! tag:unity3d.com,2011:
--- !u!114 &11400000
MonoBehaviour:
  m_ObjectHideFlags: 0
  m_CorrespondingSourceObject: {fileID: 0}
  m_PrefabInstance: {fileID: 0}
  m_PrefabAsset: {fileID: 0}
  m_GameObject: {fileID: 0}
  m_Enabled: 1
  m_EditorHideFlags: 0
  m_Script: {fileID: 11500000, guid: 9c7471b6019f945478da600e2ff98ec9, type: 3}
  m_Name: Health Potion
  m_EditorClassIdentifier: 
  itemName: Health Potion
  worth: 50
  sprite: {fileID: 21300000, guid: 4935cafb97b04984a806f5dc2da2a19c, type: 3}
  canHeal: 1
