%YAML 1.1
%TAG !u! tag:unity3d.com,2011:
--- !u!1 &7232256676887888705
GameObject:
  m_ObjectHideFlags: 0
  m_CorrespondingSourceObject: {fileID: 0}
  m_PrefabInstance: {fileID: 0}
  m_PrefabAsset: {fileID: 0}
  serializedVersion: 6
  m_Component:
  - component: {fileID: 3812637388881742060}
  - component: {fileID: 8723223748623328493}
  m_Layer: 11
  m_Name: TileSetter
  m_TagString: Untagged
  m_Icon: {fileID: 0}
  m_NavMeshLayer: 0
  m_StaticEditorFlags: 0
  m_IsActive: 1
--- !u!4 &3812637388881742060
Transform:
  m_ObjectHideFlags: 0
  m_CorrespondingSourceObject: {fileID: 0}
  m_PrefabInstance: {fileID: 0}
  m_PrefabAsset: {fileID: 0}
  m_GameObject: {fileID: 7232256676887888705}
  m_LocalRotation: {x: 0, y: 0, z: 0, w: 1}
  m_LocalPosition: {x: -19, y: 0, z: 0}
  m_LocalScale: {x: 1, y: 1, z: 1}
  m_Children: []
  m_Father: {fileID: 6964611213984035673}
  m_RootOrder: 0
  m_LocalEulerAnglesHint: {x: 0, y: 0, z: 0}
--- !u!114 &8723223748623328493
MonoBehaviour:
  m_ObjectHideFlags: 0
  m_CorrespondingSourceObject: {fileID: 0}
  m_PrefabInstance: {fileID: 0}
  m_PrefabAsset: {fileID: 0}
  m_GameObject: {fileID: 7232256676887888705}
  m_Enabled: 1
  m_EditorHideFlags: 0
  m_Script: {fileID: 11500000, guid: ac51287700700eb47abed143658ba5da, type: 3}
  m_Name: 
  m_EditorClassIdentifier: 
  possibleTiles:
  - {fileID: 8257941701021681823, guid: 94d99240cba132540859ef909ae91e77, type: 3}
  - {fileID: 8257941701021681823, guid: e85bf384ef03b004899205d30330db25, type: 3}
--- !u!1001 &3201244540273985303
PrefabInstance:
  m_ObjectHideFlags: 0
  serializedVersion: 2
  m_Modification:
    m_TransformParent: {fileID: 0}
    m_Modifications:
    - target: {fileID: 4209079887226568780, guid: 4cf12ecc9c326d74a9a11d5749607eb9,
        type: 3}
      propertyPath: m_Name
      value: New_HorizontalTiles
      objectReference: {fileID: 0}
    - target: {fileID: 4209079887226568780, guid: 4cf12ecc9c326d74a9a11d5749607eb9,
        type: 3}
      propertyPath: m_TagString
      value: Untagged
      objectReference: {fileID: 0}
    - target: {fileID: 4209079887226568781, guid: 4cf12ecc9c326d74a9a11d5749607eb9,
        type: 3}
      propertyPath: m_LocalPosition.x
      value: 0
      objectReference: {fileID: 0}
    - target: {fileID: 4209079887226568781, guid: 4cf12ecc9c326d74a9a11d5749607eb9,
        type: 3}
      propertyPath: m_LocalPosition.y
      value: 0
      objectReference: {fileID: 0}
    - target: {fileID: 4209079887226568781, guid: 4cf12ecc9c326d74a9a11d5749607eb9,
        type: 3}
      propertyPath: m_LocalPosition.z
      value: 0
      objectReference: {fileID: 0}
    - target: {fileID: 4209079887226568781, guid: 4cf12ecc9c326d74a9a11d5749607eb9,
        type: 3}
      propertyPath: m_LocalRotation.x
      value: -0
      objectReference: {fileID: 0}
    - target: {fileID: 4209079887226568781, guid: 4cf12ecc9c326d74a9a11d5749607eb9,
        type: 3}
      propertyPath: m_LocalRotation.y
      value: -0
      objectReference: {fileID: 0}
    - target: {fileID: 4209079887226568781, guid: 4cf12ecc9c326d74a9a11d5749607eb9,
        type: 3}
      propertyPath: m_LocalRotation.z
      value: -0
      objectReference: {fileID: 0}
    - target: {fileID: 4209079887226568781, guid: 4cf12ecc9c326d74a9a11d5749607eb9,
        type: 3}
      propertyPath: m_LocalRotation.w
      value: 1
      objectReference: {fileID: 0}
    - target: {fileID: 4209079887226568781, guid: 4cf12ecc9c326d74a9a11d5749607eb9,
        type: 3}
      propertyPath: m_RootOrder
      value: 0
      objectReference: {fileID: 0}
    - target: {fileID: 4209079887226568781, guid: 4cf12ecc9c326d74a9a11d5749607eb9,
        type: 3}
      propertyPath: m_LocalEulerAnglesHint.x
      value: 0
      objectReference: {fileID: 0}
    - target: {fileID: 4209079887226568781, guid: 4cf12ecc9c326d74a9a11d5749607eb9,
        type: 3}
      propertyPath: m_LocalEulerAnglesHint.y
      value: 0
      objectReference: {fileID: 0}
    - target: {fileID: 4209079887226568781, guid: 4cf12ecc9c326d74a9a11d5749607eb9,
        type: 3}
      propertyPath: m_LocalEulerAnglesHint.z
      value: 0
      objectReference: {fileID: 0}
    - target: {fileID: 4209079887226568782, guid: 4cf12ecc9c326d74a9a11d5749607eb9,
        type: 3}
      propertyPath: m_Enabled
      value: 0
      objectReference: {fileID: 0}
    - target: {fileID: 4209079887226568783, guid: 4cf12ecc9c326d74a9a11d5749607eb9,
        type: 3}
      propertyPath: m_Enabled
      value: 0
      objectReference: {fileID: 0}
    m_RemovedComponents: []
  m_SourcePrefab: {fileID: 100100000, guid: 4cf12ecc9c326d74a9a11d5749607eb9, type: 3}
--- !u!4 &1586600955138344794 stripped
Transform:
  m_CorrespondingSourceObject: {fileID: 4209079887226568781, guid: 4cf12ecc9c326d74a9a11d5749607eb9,
    type: 3}
  m_PrefabInstance: {fileID: 3201244540273985303}
  m_PrefabAsset: {fileID: 0}
--- !u!1001 &6543417054879937300
PrefabInstance:
  m_ObjectHideFlags: 0
  serializedVersion: 2
  m_Modification:
    m_TransformParent: {fileID: 1586600955138344794}
    m_Modifications:
    - target: {fileID: 4209079887226568780, guid: 4cf12ecc9c326d74a9a11d5749607eb9,
        type: 3}
      propertyPath: m_Name
      value: VerticalTile Variant (1)
      objectReference: {fileID: 0}
    - target: {fileID: 4209079887226568780, guid: 4cf12ecc9c326d74a9a11d5749607eb9,
        type: 3}
      propertyPath: m_TagString
      value: VerticalTile
      objectReference: {fileID: 0}
    - target: {fileID: 4209079887226568781, guid: 4cf12ecc9c326d74a9a11d5749607eb9,
        type: 3}
      propertyPath: m_LocalPosition.x
      value: 10
      objectReference: {fileID: 0}
    - target: {fileID: 4209079887226568781, guid: 4cf12ecc9c326d74a9a11d5749607eb9,
        type: 3}
      propertyPath: m_LocalPosition.y
      value: 0
      objectReference: {fileID: 0}
    - target: {fileID: 4209079887226568781, guid: 4cf12ecc9c326d74a9a11d5749607eb9,
        type: 3}
      propertyPath: m_LocalPosition.z
      value: 0
      objectReference: {fileID: 0}
    - target: {fileID: 4209079887226568781, guid: 4cf12ecc9c326d74a9a11d5749607eb9,
        type: 3}
      propertyPath: m_LocalRotation.x
      value: -0
      objectReference: {fileID: 0}
    - target: {fileID: 4209079887226568781, guid: 4cf12ecc9c326d74a9a11d5749607eb9,
        type: 3}
      propertyPath: m_LocalRotation.y
      value: -0
      objectReference: {fileID: 0}
    - target: {fileID: 4209079887226568781, guid: 4cf12ecc9c326d74a9a11d5749607eb9,
        type: 3}
      propertyPath: m_LocalRotation.z
      value: -0
      objectReference: {fileID: 0}
    - target: {fileID: 4209079887226568781, guid: 4cf12ecc9c326d74a9a11d5749607eb9,
        type: 3}
      propertyPath: m_LocalRotation.w
      value: 1
      objectReference: {fileID: 0}
    - target: {fileID: 4209079887226568781, guid: 4cf12ecc9c326d74a9a11d5749607eb9,
        type: 3}
      propertyPath: m_RootOrder
      value: 1
      objectReference: {fileID: 0}
    - target: {fileID: 4209079887226568781, guid: 4cf12ecc9c326d74a9a11d5749607eb9,
        type: 3}
      propertyPath: m_LocalEulerAnglesHint.x
      value: 0
      objectReference: {fileID: 0}
    - target: {fileID: 4209079887226568781, guid: 4cf12ecc9c326d74a9a11d5749607eb9,
        type: 3}
      propertyPath: m_LocalEulerAnglesHint.y
      value: 0
      objectReference: {fileID: 0}
    - target: {fileID: 4209079887226568781, guid: 4cf12ecc9c326d74a9a11d5749607eb9,
        type: 3}
      propertyPath: m_LocalEulerAnglesHint.z
      value: 0
      objectReference: {fileID: 0}
    - target: {fileID: 4209079887226568783, guid: 4cf12ecc9c326d74a9a11d5749607eb9,
        type: 3}
      propertyPath: m_SortingOrder
      value: 1
      objectReference: {fileID: 0}
    m_RemovedComponents: []
  m_SourcePrefab: {fileID: 100100000, guid: 4cf12ecc9c326d74a9a11d5749607eb9, type: 3}
--- !u!4 &6964611213984035673 stripped
Transform:
  m_CorrespondingSourceObject: {fileID: 4209079887226568781, guid: 4cf12ecc9c326d74a9a11d5749607eb9,
    type: 3}
  m_PrefabInstance: {fileID: 6543417054879937300}
  m_PrefabAsset: {fileID: 0}
--- !u!1001 &8151199059033800424
PrefabInstance:
  m_ObjectHideFlags: 0
  serializedVersion: 2
  m_Modification:
    m_TransformParent: {fileID: 1586600955138344794}
    m_Modifications:
    - target: {fileID: 4209079887226568780, guid: 4cf12ecc9c326d74a9a11d5749607eb9,
        type: 3}
      propertyPath: m_Name
      value: VerticalTile Variant
      objectReference: {fileID: 0}
    - target: {fileID: 4209079887226568780, guid: 4cf12ecc9c326d74a9a11d5749607eb9,
        type: 3}
      propertyPath: m_TagString
      value: VerticalTile
      objectReference: {fileID: 0}
    - target: {fileID: 4209079887226568781, guid: 4cf12ecc9c326d74a9a11d5749607eb9,
        type: 3}
      propertyPath: m_LocalPosition.x
      value: -10
      objectReference: {fileID: 0}
    - target: {fileID: 4209079887226568781, guid: 4cf12ecc9c326d74a9a11d5749607eb9,
        type: 3}
      propertyPath: m_LocalPosition.y
      value: 0
      objectReference: {fileID: 0}
    - target: {fileID: 4209079887226568781, guid: 4cf12ecc9c326d74a9a11d5749607eb9,
        type: 3}
      propertyPath: m_LocalPosition.z
      value: 0
      objectReference: {fileID: 0}
    - target: {fileID: 4209079887226568781, guid: 4cf12ecc9c326d74a9a11d5749607eb9,
        type: 3}
      propertyPath: m_LocalRotation.x
      value: -0
      objectReference: {fileID: 0}
    - target: {fileID: 4209079887226568781, guid: 4cf12ecc9c326d74a9a11d5749607eb9,
        type: 3}
      propertyPath: m_LocalRotation.y
      value: -0
      objectReference: {fileID: 0}
    - target: {fileID: 4209079887226568781, guid: 4cf12ecc9c326d74a9a11d5749607eb9,
        type: 3}
      propertyPath: m_LocalRotation.z
      value: -0
      objectReference: {fileID: 0}
    - target: {fileID: 4209079887226568781, guid: 4cf12ecc9c326d74a9a11d5749607eb9,
        type: 3}
      propertyPath: m_LocalRotation.w
      value: 1
      objectReference: {fileID: 0}
    - target: {fileID: 4209079887226568781, guid: 4cf12ecc9c326d74a9a11d5749607eb9,
        type: 3}
      propertyPath: m_RootOrder
      value: 0
      objectReference: {fileID: 0}
    - target: {fileID: 4209079887226568781, guid: 4cf12ecc9c326d74a9a11d5749607eb9,
        type: 3}
      propertyPath: m_LocalEulerAnglesHint.x
      value: 0
      objectReference: {fileID: 0}
    - target: {fileID: 4209079887226568781, guid: 4cf12ecc9c326d74a9a11d5749607eb9,
        type: 3}
      propertyPath: m_LocalEulerAnglesHint.y
      value: 0
      objectReference: {fileID: 0}
    - target: {fileID: 4209079887226568781, guid: 4cf12ecc9c326d74a9a11d5749607eb9,
        type: 3}
      propertyPath: m_LocalEulerAnglesHint.z
      value: 0
      objectReference: {fileID: 0}
    - target: {fileID: 4209079887226568783, guid: 4cf12ecc9c326d74a9a11d5749607eb9,
        type: 3}
      propertyPath: m_SortingOrder
      value: 1
      objectReference: {fileID: 0}
    m_RemovedComponents: []
  m_SourcePrefab: {fileID: 100100000, guid: 4cf12ecc9c326d74a9a11d5749607eb9, type: 3}
