%YAML 1.1
%TAG !u! tag:unity3d.com,2011:
--- !u!114 &11400000
MonoBehaviour:
  m_ObjectHideFlags: 0
  m_CorrespondingSourceObject: {fileID: 0}
  m_PrefabInstance: {fileID: 0}
  m_PrefabAsset: {fileID: 0}
  m_GameObject: {fileID: 0}
  m_Enabled: 1
  m_EditorHideFlags: 0
  m_Script: {fileID: 11500000, guid: f19fa5c545f1e974db2b24575a2521f7, type: 3}
  m_Name: Type93
  m_EditorClassIdentifier: 
  projectile: {fileID: 3460079048313928005, guid: 6bb2774991b3b8c429c3df73527bd372,
    type: 3}
  smokeEffect: {fileID: 6575497584371146308, guid: 14d79930e474a79409430f99e26e38be,
    type: 3}
  barrelSmoke: {fileID: 1636219544660311810, guid: 1daed6582ad893e43ba9854565aaeeed,
    type: 3}
  recoil: 2
  fullAuto: 1
  maxAmmo: 30
  closedBolt: 1
  shell: {fileID: 5369424422462897386, guid: f1a148ffdf8b7e34892e41aaaf446d5d, type: 3}
  shootAudio: {fileID: 8300000, guid: 2389ec4692e253b4ebb99148d7137821, type: 3}
  reloadAudio: {fileID: 8300000, guid: 32a4399c481943c4ea9d312726a5df21, type: 3}
  reloadTactical: {fileID: 8300000, guid: 0529ba99cbfb48647a9b8a10477138fa, type: 3}
  hotHissing: {fileID: 8300000, guid: 260cbecd71dfb784dae2ef674818206e, type: 3}
  tail: {fileID: 8300000, guid: 4e2894a8d0c0d1942ba3c827e557d589, type: 3}
  emptyClick: {fileID: 8300000, guid: 52c3472d8e492214a95225f16b1b8668, type: 3}
  safeClick: {fileID: 8300000, guid: caff84628fad1ed409cc051a50544d7d, type: 3}
  RPM: 550
  animator: {fileID: 9100000, guid: a209051b6b8c8e24b9bac87f7021f5cb, type: 2}
  worldSprite: {fileID: 21300000, guid: 0dc634a6458053046b90279ea1ff6ed8, type: 3}
  reloadTime: 2
  tacReloadTime: 2.5
  magazine: {fileID: 8438067004536406755, guid: 985290e857d59f048a783c79784ace5b,
    type: 3}
  magazineDelay: 0.6
  amountOfProjectiles: 1
  additionalAmmoUsage: 0
  usesMagazineAmmo: 1
  useMuzzleFlash: 1
