%YAML 1.1
%TAG !u! tag:unity3d.com,2011:
--- !u!74 &7400000
AnimationClip:
  m_ObjectHideFlags: 0
  m_CorrespondingSourceObject: {fileID: 0}
  m_PrefabInstance: {fileID: 0}
  m_PrefabAsset: {fileID: 0}
  m_Name: NE_SLIDE
  serializedVersion: 6
  m_Legacy: 0
  m_Compressed: 0
  m_UseHighQualityCurve: 1
  m_RotationCurves: []
  m_CompressedRotationCurves: []
  m_EulerCurves: []
  m_PositionCurves:
  - curve:
      serializedVersion: 2
      m_Curve:
      - serializedVersion: 3
        time: 0
        value: {x: 0, y: 0.158, z: 0}
        inSlope: {x: 0, y: 0, z: 0}
        outSlope: {x: 0, y: 0, z: 0}
        tangentMode: 0
        weightedMode: 0
        inWeight: {x: 0.33333334, y: 0.33333334, z: 0.33333334}
        outWeight: {x: 0.33333334, y: 0.33333334, z: 0.33333334}
      - serializedVersion: 3
        time: 0.15
        value: {x: 0, y: -0.184, z: 0}
        inSlope: {x: 0, y: -0.11675679, z: 0}
        outSlope: {x: 0, y: -0.11675679, z: 0}
        tangentMode: 0
        weightedMode: 0
        inWeight: {x: 0.33333334, y: 0.33333334, z: 0.33333334}
        outWeight: {x: 0.33333334, y: 0.33333334, z: 0.33333334}
      - serializedVersion: 3
        time: 0.6166667
        value: {x: 0, y: -0.202, z: 0}
        inSlope: {x: 0, y: 0, z: 0}
        outSlope: {x: 0, y: 0, z: 0}
        tangentMode: 0
        weightedMode: 0
        inWeight: {x: 0.33333334, y: 0.33333334, z: 0.33333334}
        outWeight: {x: 0.33333334, y: 0.33333334, z: 0.33333334}
      - serializedVersion: 3
        time: 0.68333334
        value: {x: 0, y: 0.129, z: 0}
        inSlope: {x: 0, y: 0, z: 0}
        outSlope: {x: 0, y: 0, z: 0}
        tangentMode: 0
        weightedMode: 0
        inWeight: {x: 0.33333334, y: 0.33333334, z: 0.33333334}
        outWeight: {x: 0.33333334, y: 0.33333334, z: 0.33333334}
      m_PreInfinity: 2
      m_PostInfinity: 2
      m_RotationOrder: 4
    path: GunReference
  - curve:
      serializedVersion: 2
      m_Curve:
      - serializedVersion: 3
        time: 0
        value: {x: 0, y: 0.289, z: 0}
        inSlope: {x: 0, y: 0, z: 0}
        outSlope: {x: 0, y: 0, z: 0}
        tangentMode: 0
        weightedMode: 0
        inWeight: {x: 0.33333334, y: 0.33333334, z: 0.33333334}
        outWeight: {x: 0.33333334, y: 0.33333334, z: 0.33333334}
      - serializedVersion: 3
        time: 0.15
        value: {x: 0, y: -0.143, z: 0}
        inSlope: {x: 0, y: 0, z: 0}
        outSlope: {x: 0, y: 0, z: 0}
        tangentMode: 0
        weightedMode: 0
        inWeight: {x: 0.33333334, y: 0.33333334, z: 0.33333334}
        outWeight: {x: 0.33333334, y: 0.33333334, z: 0.33333334}
      - serializedVersion: 3
        time: 0.6166667
        value: {x: 0, y: -0.139, z: 0}
        inSlope: {x: 0, y: 0.027428623, z: 0}
        outSlope: {x: 0, y: 0.027428623, z: 0}
        tangentMode: 0
        weightedMode: 0
        inWeight: {x: 0.33333334, y: 0.33333334, z: 0.33333334}
        outWeight: {x: 0.33333334, y: 0.33333334, z: 0.33333334}
      - serializedVersion: 3
        time: 0.73333335
        value: {x: 0, y: 0.261, z: 0}
        inSlope: {x: 0, y: 0, z: 0}
        outSlope: {x: 0, y: 0, z: 0}
        tangentMode: 0
        weightedMode: 0
        inWeight: {x: 0.33333334, y: 0.33333334, z: 0.33333334}
        outWeight: {x: 0.33333334, y: 0.33333334, z: 0.33333334}
      m_PreInfinity: 2
      m_PostInfinity: 2
      m_RotationOrder: 4
    path: Hair/HairPoint
  m_ScaleCurves: []
  m_FloatCurves:
  - curve:
      serializedVersion: 2
      m_Curve:
      - serializedVersion: 3
        time: 0
        value: 2
        inSlope: 0
        outSlope: 0
        tangentMode: 136
        weightedMode: 0
        inWeight: 0
        outWeight: 0
      m_PreInfinity: 2
      m_PostInfinity: 2
      m_RotationOrder: 4
    attribute: m_Size.x
    path: Arms
    classID: 212
    script: {fileID: 0}
  m_PPtrCurves:
  - curve:
    - time: 0
      value: {fileID: 21300000, guid: 476f85c701e808b42b6248170ce72ec4, type: 3}
    - time: 0.016666668
      value: {fileID: 21300000, guid: b6d185ff3d903004a8feb54c74c2bf80, type: 3}
    - time: 0.033333335
      value: {fileID: 21300000, guid: a7a329724593fe6418732f59f665e1d0, type: 3}
    - time: 0.05
      value: {fileID: 21300000, guid: 46836fd359529944a9d63f5626a49150, type: 3}
    - time: 0.06666667
      value: {fileID: 21300000, guid: 4272cb45134b0954b88d6ec453b62ffe, type: 3}
    - time: 0.083333336
      value: {fileID: 21300000, guid: 58e183ac43cd6e74f8bec3d2bc7db97d, type: 3}
    - time: 0.1
      value: {fileID: 21300000, guid: 94e549fe71cb4c24e8f1c5f755827a4e, type: 3}
    - time: 0.11666667
      value: {fileID: 21300000, guid: 0fccb904ddf2ffb4eaad4e76e848e48b, type: 3}
    - time: 0.13333334
      value: {fileID: 21300000, guid: 4a47289fc3816a14b915d0ed7e4358b7, type: 3}
    - time: 0.15
      value: {fileID: 21300000, guid: c238649f4ecd82649a9ec3d3118c8a4b, type: 3}
    - time: 0.16666667
      value: {fileID: 21300000, guid: f5ab6c9d4dd46074691a5d8dcdcba684, type: 3}
    - time: 0.18333334
      value: {fileID: 21300000, guid: 12242453908811c40b04d556b9d3f330, type: 3}
    - time: 0.2
      value: {fileID: 21300000, guid: bb3f5ee4c8218ee4a8394bd5b256202d, type: 3}
    - time: 0.21666667
      value: {fileID: 21300000, guid: 50cc1f3cf9e157e4699f989583c40389, type: 3}
    - time: 0.23333333
      value: {fileID: 21300000, guid: bf63822d65411d446a26ced492af975e, type: 3}
    - time: 0.25
      value: {fileID: 21300000, guid: bc8f714ae222ee749a3f0f2674a521b2, type: 3}
    - time: 0.26666668
      value: {fileID: 21300000, guid: 257b6ce1ecfdd6c4581ac59aaf033932, type: 3}
    - time: 0.28333333
      value: {fileID: 21300000, guid: fa577f4221fea4d409c819bc521e21f1, type: 3}
    - time: 0.3
      value: {fileID: 21300000, guid: 4341eee844814fc41873f55913de0262, type: 3}
    - time: 0.31666666
      value: {fileID: 21300000, guid: d8fd0f04f647e8e4f930a5e4e7385917, type: 3}
    - time: 0.33333334
      value: {fileID: 21300000, guid: f2e2899e608c41148af764dd802be43a, type: 3}
    - time: 0.35
      value: {fileID: 21300000, guid: 21c08281e0ace0345863713f053b2119, type: 3}
    - time: 0.36666667
      value: {fileID: 21300000, guid: 3f8b27c6faba61e4aa1e8da2e70563db, type: 3}
    - time: 0.38333333
      value: {fileID: 21300000, guid: 2e3f94323045e77479f2cfd089e46da5, type: 3}
    - time: 0.4
      value: {fileID: 21300000, guid: a5aee9045ec96224980f497b6ac1a85e, type: 3}
    - time: 0.41666666
      value: {fileID: 21300000, guid: 6a99b9e80c592ad4cadf2dc3485feb92, type: 3}
    - time: 0.43333334
      value: {fileID: 21300000, guid: 7c92f216c314b6f4eace28d13ee288a4, type: 3}
    - time: 0.45
      value: {fileID: 21300000, guid: 798fe99567e81c14ab938c32d832abe0, type: 3}
    - time: 0.46666667
      value: {fileID: 21300000, guid: 6ad45a356ed1dc84badb5c73bca3ca1b, type: 3}
    - time: 0.48333332
      value: {fileID: 21300000, guid: 694e4fb2236a9b140b71d1f4c6cfd47b, type: 3}
    - time: 0.5
      value: {fileID: 21300000, guid: 32d0e7f567869a046a3a34302bd552dd, type: 3}
    - time: 0.51666665
      value: {fileID: 21300000, guid: f7f3950f7d3695e428a9b3a00a8fc021, type: 3}
    - time: 0.53333336
      value: {fileID: 21300000, guid: d6c6849e24259e44b8f8494071bc09e1, type: 3}
    - time: 0.55
      value: {fileID: 21300000, guid: bfd0676fa6959c044a49f76ca4543a4e, type: 3}
    - time: 0.56666666
      value: {fileID: 21300000, guid: 1ca84f8d69b35344c93a6847cd7d3575, type: 3}
    - time: 0.5833333
      value: {fileID: 21300000, guid: 92af7bec2a16c6f438e2a946783aa4a4, type: 3}
    - time: 0.6
      value: {fileID: 21300000, guid: 35b8eb25d862515488eebfb770305db6, type: 3}
    - time: 0.6166667
      value: {fileID: 21300000, guid: a9d4d19608963ca448209539a7cd4b80, type: 3}
    - time: 0.6333333
      value: {fileID: 21300000, guid: 160fe2723d050f347b8e241736e578c3, type: 3}
    - time: 0.65
      value: {fileID: 21300000, guid: 760f85f6e529dea4c9eab615d6d9431f, type: 3}
    - time: 0.6666667
      value: {fileID: 21300000, guid: de58497c3a1bed7429b657e7bebc8eea, type: 3}
    - time: 0.68333334
      value: {fileID: 21300000, guid: c756df879e689224bb92350443581858, type: 3}
    - time: 0.7
      value: {fileID: 21300000, guid: 2479628876446784eb2a75379959dace, type: 3}
    - time: 0.71666664
      value: {fileID: 21300000, guid: c2e2607496383b54592852ac0e1b845b, type: 3}
    attribute: m_Sprite
    path: 
    classID: 212
    script: {fileID: 0}
  - curve:
    - time: 0
      value: {fileID: 21300000, guid: 122225e9fdec72249860231d9b079361, type: 3}
    - time: 0.016666668
      value: {fileID: 21300000, guid: 4ed31bd3faf61424383e3c4e62e79bba, type: 3}
    - time: 0.033333335
      value: {fileID: 21300000, guid: 4a40b23f92d58614992a63057abc0b3e, type: 3}
    - time: 0.05
      value: {fileID: 21300000, guid: 7899d8afb0987d74e9ea113aeb5289a5, type: 3}
    - time: 0.06666667
      value: {fileID: 21300000, guid: 1993ec3e928023442a2d6fc86fc642b3, type: 3}
    - time: 0.083333336
      value: {fileID: 21300000, guid: 4c0cadc1a103f744d8ab5370f4b6ea84, type: 3}
    - time: 0.1
      value: {fileID: 21300000, guid: 5af4db0ac2c85114683776b2465d1230, type: 3}
    - time: 0.11666667
      value: {fileID: 21300000, guid: 5b66d93441c511b41afe45e3235275d1, type: 3}
    - time: 0.13333334
      value: {fileID: 21300000, guid: 8584cc2b3b1d94241b947c57b432d21b, type: 3}
    - time: 0.15
      value: {fileID: 21300000, guid: 3bb4ae1719aff1b4eb62f53820efc951, type: 3}
    - time: 0.16666667
      value: {fileID: 21300000, guid: f82509723d879094aa6cc341defdddf1, type: 3}
    - time: 0.18333334
      value: {fileID: 21300000, guid: c3c17eac4956f76418866b253fd8e9ec, type: 3}
    - time: 0.2
      value: {fileID: 21300000, guid: ff1ad50785d1fd242b2bedfec902f184, type: 3}
    - time: 0.21666667
      value: {fileID: 21300000, guid: 12be219c78e064f48a0adb2ac0ab96bf, type: 3}
    - time: 0.23333333
      value: {fileID: 21300000, guid: 6aa807d5de753f047ab5d85d844a17d9, type: 3}
    - time: 0.25
      value: {fileID: 21300000, guid: 1a73e695e020cc542979157f338c9043, type: 3}
    - time: 0.26666668
      value: {fileID: 21300000, guid: d4dfbb5b77bc11f4893c34e4d6d3fc38, type: 3}
    - time: 0.28333333
      value: {fileID: 21300000, guid: 385a7dd35235807438202ca05d9373ff, type: 3}
    - time: 0.3
      value: {fileID: 21300000, guid: ebcd296af05819a4f89af8bc5042520d, type: 3}
    - time: 0.31666666
      value: {fileID: 21300000, guid: 76aeef454b60bab44828a44b9fcf08d2, type: 3}
    - time: 0.33333334
      value: {fileID: 21300000, guid: 004f24e0b5911e449a8e2b90a6f3330c, type: 3}
    - time: 0.35
      value: {fileID: 21300000, guid: e9f5f3440b38c2047b1c258f944c3bf5, type: 3}
    - time: 0.36666667
      value: {fileID: 21300000, guid: 0690967d57e8d6148b3e633523709fc8, type: 3}
    - time: 0.38333333
      value: {fileID: 21300000, guid: ae04ca4318f216e42952e3d4852071c5, type: 3}
    - time: 0.4
      value: {fileID: 21300000, guid: 5ce932674f5a74340938c76a083be30e, type: 3}
    - time: 0.41666666
      value: {fileID: 21300000, guid: 999132bd118468a47b5e4cb3cef9754c, type: 3}
    - time: 0.43333334
      value: {fileID: 21300000, guid: a87905da916eaa94c93274de582eb3d7, type: 3}
    - time: 0.45
      value: {fileID: 21300000, guid: 5923f24b7f9d29c4baa23c648e2a2068, type: 3}
    - time: 0.46666667
      value: {fileID: 21300000, guid: 8dff739427c4eba4eac6ab0e0584c811, type: 3}
    - time: 0.48333332
      value: {fileID: 21300000, guid: 373492776b0424b44b1009f64be1c63b, type: 3}
    - time: 0.5
      value: {fileID: 21300000, guid: 880b4971022e3fa4e991ebb32e5c0d70, type: 3}
    - time: 0.51666665
      value: {fileID: 21300000, guid: 8fd9020f931a2144b967b927fe070616, type: 3}
    - time: 0.53333336
      value: {fileID: 21300000, guid: 16f7abda0ed887840ac22b2b819c4a0a, type: 3}
    - time: 0.55
      value: {fileID: 21300000, guid: 56c814dd7deaf134d80b5bce2ded56a9, type: 3}
    - time: 0.56666666
      value: {fileID: 21300000, guid: 9cd22668ae1189a4ab64656861d4976e, type: 3}
    - time: 0.5833333
      value: {fileID: 21300000, guid: 2f5927785d42e3047989b6ecb4bcd951, type: 3}
    - time: 0.6
      value: {fileID: 21300000, guid: 6f428b343b9b3f44fa13b859db3172ae, type: 3}
    - time: 0.6166667
      value: {fileID: 21300000, guid: 6d812998a8429784890d656b1ec39ae0, type: 3}
    - time: 0.6333333
      value: {fileID: 21300000, guid: 905a783cd417a6d4bbd4a7d493b94e37, type: 3}
    - time: 0.65
      value: {fileID: 21300000, guid: 6df7b14cac0181344bd6ab883440324d, type: 3}
    - time: 0.6666667
      value: {fileID: 21300000, guid: 62a2f2b1724843141bd49cbfae76d5fe, type: 3}
    - time: 0.68333334
      value: {fileID: 21300000, guid: 4483fad45fe95fc4ca71f1047b29af0c, type: 3}
    - time: 0.7
      value: {fileID: 21300000, guid: 7f86eeaf03f948f49a4ef9b4ff28f435, type: 3}
    attribute: m_Sprite
    path: Arms
    classID: 212
    script: {fileID: 0}
  m_SampleRate: 60
  m_WrapMode: 0
  m_Bounds:
    m_Center: {x: 0, y: 0, z: 0}
    m_Extent: {x: 0, y: 0, z: 0}
  m_ClipBindingConstant:
    genericBindings:
    - serializedVersion: 2
      path: 3039726972
      attribute: 1
      script: {fileID: 0}
      typeID: 4
      customType: 0
      isPPtrCurve: 0
    - serializedVersion: 2
      path: 1280637398
      attribute: 1
      script: {fileID: 0}
      typeID: 4
      customType: 0
      isPPtrCurve: 0
    - serializedVersion: 2
      path: 0
      attribute: 0
      script: {fileID: 0}
      typeID: 212
      customType: 23
      isPPtrCurve: 1
    - serializedVersion: 2
      path: 1288071446
      attribute: 0
      script: {fileID: 0}
      typeID: 212
      customType: 23
      isPPtrCurve: 1
    - serializedVersion: 2
      path: 1288071446
      attribute: 4197328169
      script: {fileID: 0}
      typeID: 212
      customType: 0
      isPPtrCurve: 0
    pptrCurveMapping:
    - {fileID: 21300000, guid: 476f85c701e808b42b6248170ce72ec4, type: 3}
    - {fileID: 21300000, guid: b6d185ff3d903004a8feb54c74c2bf80, type: 3}
    - {fileID: 21300000, guid: a7a329724593fe6418732f59f665e1d0, type: 3}
    - {fileID: 21300000, guid: 46836fd359529944a9d63f5626a49150, type: 3}
    - {fileID: 21300000, guid: 4272cb45134b0954b88d6ec453b62ffe, type: 3}
    - {fileID: 21300000, guid: 58e183ac43cd6e74f8bec3d2bc7db97d, type: 3}
    - {fileID: 21300000, guid: 94e549fe71cb4c24e8f1c5f755827a4e, type: 3}
    - {fileID: 21300000, guid: 0fccb904ddf2ffb4eaad4e76e848e48b, type: 3}
    - {fileID: 21300000, guid: 4a47289fc3816a14b915d0ed7e4358b7, type: 3}
    - {fileID: 21300000, guid: c238649f4ecd82649a9ec3d3118c8a4b, type: 3}
    - {fileID: 21300000, guid: f5ab6c9d4dd46074691a5d8dcdcba684, type: 3}
    - {fileID: 21300000, guid: 12242453908811c40b04d556b9d3f330, type: 3}
    - {fileID: 21300000, guid: bb3f5ee4c8218ee4a8394bd5b256202d, type: 3}
    - {fileID: 21300000, guid: 50cc1f3cf9e157e4699f989583c40389, type: 3}
    - {fileID: 21300000, guid: bf63822d65411d446a26ced492af975e, type: 3}
    - {fileID: 21300000, guid: bc8f714ae222ee749a3f0f2674a521b2, type: 3}
    - {fileID: 21300000, guid: 257b6ce1ecfdd6c4581ac59aaf033932, type: 3}
    - {fileID: 21300000, guid: fa577f4221fea4d409c819bc521e21f1, type: 3}
    - {fileID: 21300000, guid: 4341eee844814fc41873f55913de0262, type: 3}
    - {fileID: 21300000, guid: d8fd0f04f647e8e4f930a5e4e7385917, type: 3}
    - {fileID: 21300000, guid: f2e2899e608c41148af764dd802be43a, type: 3}
    - {fileID: 21300000, guid: 21c08281e0ace0345863713f053b2119, type: 3}
    - {fileID: 21300000, guid: 3f8b27c6faba61e4aa1e8da2e70563db, type: 3}
    - {fileID: 21300000, guid: 2e3f94323045e77479f2cfd089e46da5, type: 3}
    - {fileID: 21300000, guid: a5aee9045ec96224980f497b6ac1a85e, type: 3}
    - {fileID: 21300000, guid: 6a99b9e80c592ad4cadf2dc3485feb92, type: 3}
    - {fileID: 21300000, guid: 7c92f216c314b6f4eace28d13ee288a4, type: 3}
    - {fileID: 21300000, guid: 798fe99567e81c14ab938c32d832abe0, type: 3}
    - {fileID: 21300000, guid: 6ad45a356ed1dc84badb5c73bca3ca1b, type: 3}
    - {fileID: 21300000, guid: 694e4fb2236a9b140b71d1f4c6cfd47b, type: 3}
    - {fileID: 21300000, guid: 32d0e7f567869a046a3a34302bd552dd, type: 3}
    - {fileID: 21300000, guid: f7f3950f7d3695e428a9b3a00a8fc021, type: 3}
    - {fileID: 21300000, guid: d6c6849e24259e44b8f8494071bc09e1, type: 3}
    - {fileID: 21300000, guid: bfd0676fa6959c044a49f76ca4543a4e, type: 3}
    - {fileID: 21300000, guid: 1ca84f8d69b35344c93a6847cd7d3575, type: 3}
    - {fileID: 21300000, guid: 92af7bec2a16c6f438e2a946783aa4a4, type: 3}
    - {fileID: 21300000, guid: 35b8eb25d862515488eebfb770305db6, type: 3}
    - {fileID: 21300000, guid: a9d4d19608963ca448209539a7cd4b80, type: 3}
    - {fileID: 21300000, guid: 160fe2723d050f347b8e241736e578c3, type: 3}
    - {fileID: 21300000, guid: 760f85f6e529dea4c9eab615d6d9431f, type: 3}
    - {fileID: 21300000, guid: de58497c3a1bed7429b657e7bebc8eea, type: 3}
    - {fileID: 21300000, guid: c756df879e689224bb92350443581858, type: 3}
    - {fileID: 21300000, guid: 2479628876446784eb2a75379959dace, type: 3}
    - {fileID: 21300000, guid: c2e2607496383b54592852ac0e1b845b, type: 3}
    - {fileID: 21300000, guid: 122225e9fdec72249860231d9b079361, type: 3}
    - {fileID: 21300000, guid: 4ed31bd3faf61424383e3c4e62e79bba, type: 3}
    - {fileID: 21300000, guid: 4a40b23f92d58614992a63057abc0b3e, type: 3}
    - {fileID: 21300000, guid: 7899d8afb0987d74e9ea113aeb5289a5, type: 3}
    - {fileID: 21300000, guid: 1993ec3e928023442a2d6fc86fc642b3, type: 3}
    - {fileID: 21300000, guid: 4c0cadc1a103f744d8ab5370f4b6ea84, type: 3}
    - {fileID: 21300000, guid: 5af4db0ac2c85114683776b2465d1230, type: 3}
    - {fileID: 21300000, guid: 5b66d93441c511b41afe45e3235275d1, type: 3}
    - {fileID: 21300000, guid: 8584cc2b3b1d94241b947c57b432d21b, type: 3}
    - {fileID: 21300000, guid: 3bb4ae1719aff1b4eb62f53820efc951, type: 3}
    - {fileID: 21300000, guid: f82509723d879094aa6cc341defdddf1, type: 3}
    - {fileID: 21300000, guid: c3c17eac4956f76418866b253fd8e9ec, type: 3}
    - {fileID: 21300000, guid: ff1ad50785d1fd242b2bedfec902f184, type: 3}
    - {fileID: 21300000, guid: 12be219c78e064f48a0adb2ac0ab96bf, type: 3}
    - {fileID: 21300000, guid: 6aa807d5de753f047ab5d85d844a17d9, type: 3}
    - {fileID: 21300000, guid: 1a73e695e020cc542979157f338c9043, type: 3}
    - {fileID: 21300000, guid: d4dfbb5b77bc11f4893c34e4d6d3fc38, type: 3}
    - {fileID: 21300000, guid: 385a7dd35235807438202ca05d9373ff, type: 3}
    - {fileID: 21300000, guid: ebcd296af05819a4f89af8bc5042520d, type: 3}
    - {fileID: 21300000, guid: 76aeef454b60bab44828a44b9fcf08d2, type: 3}
    - {fileID: 21300000, guid: 004f24e0b5911e449a8e2b90a6f3330c, type: 3}
    - {fileID: 21300000, guid: e9f5f3440b38c2047b1c258f944c3bf5, type: 3}
    - {fileID: 21300000, guid: 0690967d57e8d6148b3e633523709fc8, type: 3}
    - {fileID: 21300000, guid: ae04ca4318f216e42952e3d4852071c5, type: 3}
    - {fileID: 21300000, guid: 5ce932674f5a74340938c76a083be30e, type: 3}
    - {fileID: 21300000, guid: 999132bd118468a47b5e4cb3cef9754c, type: 3}
    - {fileID: 21300000, guid: a87905da916eaa94c93274de582eb3d7, type: 3}
    - {fileID: 21300000, guid: 5923f24b7f9d29c4baa23c648e2a2068, type: 3}
    - {fileID: 21300000, guid: 8dff739427c4eba4eac6ab0e0584c811, type: 3}
    - {fileID: 21300000, guid: 373492776b0424b44b1009f64be1c63b, type: 3}
    - {fileID: 21300000, guid: 880b4971022e3fa4e991ebb32e5c0d70, type: 3}
    - {fileID: 21300000, guid: 8fd9020f931a2144b967b927fe070616, type: 3}
    - {fileID: 21300000, guid: 16f7abda0ed887840ac22b2b819c4a0a, type: 3}
    - {fileID: 21300000, guid: 56c814dd7deaf134d80b5bce2ded56a9, type: 3}
    - {fileID: 21300000, guid: 9cd22668ae1189a4ab64656861d4976e, type: 3}
    - {fileID: 21300000, guid: 2f5927785d42e3047989b6ecb4bcd951, type: 3}
    - {fileID: 21300000, guid: 6f428b343b9b3f44fa13b859db3172ae, type: 3}
    - {fileID: 21300000, guid: 6d812998a8429784890d656b1ec39ae0, type: 3}
    - {fileID: 21300000, guid: 905a783cd417a6d4bbd4a7d493b94e37, type: 3}
    - {fileID: 21300000, guid: 6df7b14cac0181344bd6ab883440324d, type: 3}
    - {fileID: 21300000, guid: 62a2f2b1724843141bd49cbfae76d5fe, type: 3}
    - {fileID: 21300000, guid: 4483fad45fe95fc4ca71f1047b29af0c, type: 3}
    - {fileID: 21300000, guid: 7f86eeaf03f948f49a4ef9b4ff28f435, type: 3}
  m_AnimationClipSettings:
    serializedVersion: 2
    m_AdditiveReferencePoseClip: {fileID: 0}
    m_AdditiveReferencePoseTime: 0
    m_StartTime: 0
    m_StopTime: 0.73333335
    m_OrientationOffsetY: 0
    m_Level: 0
    m_CycleOffset: 0
    m_HasAdditiveReferencePose: 0
    m_LoopTime: 0
    m_LoopBlend: 0
    m_LoopBlendOrientation: 0
    m_LoopBlendPositionY: 0
    m_LoopBlendPositionXZ: 0
    m_KeepOriginalOrientation: 0
    m_KeepOriginalPositionY: 1
    m_KeepOriginalPositionXZ: 0
    m_HeightFromFeet: 0
    m_Mirror: 0
  m_EditorCurves:
  - curve:
      serializedVersion: 2
      m_Curve:
      - serializedVersion: 3
        time: 0
        value: 2
        inSlope: 0
        outSlope: 0
        tangentMode: 136
        weightedMode: 0
        inWeight: 0
        outWeight: 0
      m_PreInfinity: 2
      m_PostInfinity: 2
      m_RotationOrder: 4
    attribute: m_Size.x
    path: Arms
    classID: 212
    script: {fileID: 0}
  - curve:
      serializedVersion: 2
      m_Curve:
      - serializedVersion: 3
        time: 0
        value: 0
        inSlope: 0
        outSlope: 0
        tangentMode: 136
        weightedMode: 0
        inWeight: 0.33333334
        outWeight: 0.33333334
      - serializedVersion: 3
        time: 0.15
        value: 0
        inSlope: 0
        outSlope: 0
        tangentMode: 136
        weightedMode: 0
        inWeight: 0.33333334
        outWeight: 0.33333334
      - serializedVersion: 3
        time: 0.6166667
        value: 0
        inSlope: 0
        outSlope: 0
        tangentMode: 136
        weightedMode: 0
        inWeight: 0.33333334
        outWeight: 0.33333334
      - serializedVersion: 3
        time: 0.68333334
        value: 0
        inSlope: 0
        outSlope: 0
        tangentMode: 136
        weightedMode: 0
        inWeight: 0.33333334
        outWeight: 0.33333334
      m_PreInfinity: 2
      m_PostInfinity: 2
      m_RotationOrder: 4
    attribute: m_LocalPosition.x
    path: GunReference
    classID: 4
    script: {fileID: 0}
  - curve:
      serializedVersion: 2
      m_Curve:
      - serializedVersion: 3
        time: 0
        value: 0.158
        inSlope: 0
        outSlope: 0
        tangentMode: 136
        weightedMode: 0
        inWeight: 0.33333334
        outWeight: 0.33333334
      - serializedVersion: 3
        time: 0.15
        value: -0.184
        inSlope: -0.11675679
        outSlope: -0.11675679
        tangentMode: 136
        weightedMode: 0
        inWeight: 0.33333334
        outWeight: 0.33333334
      - serializedVersion: 3
        time: 0.6166667
        value: -0.202
        inSlope: 0
        outSlope: 0
        tangentMode: 136
        weightedMode: 0
        inWeight: 0.33333334
        outWeight: 0.33333334
      - serializedVersion: 3
        time: 0.68333334
        value: 0.129
        inSlope: 0
        outSlope: 0
        tangentMode: 136
        weightedMode: 0
        inWeight: 0.33333334
        outWeight: 0.33333334
      m_PreInfinity: 2
      m_PostInfinity: 2
      m_RotationOrder: 4
    attribute: m_LocalPosition.y
    path: GunReference
    classID: 4
    script: {fileID: 0}
  - curve:
      serializedVersion: 2
      m_Curve:
      - serializedVersion: 3
        time: 0
        value: 0
        inSlope: 0
        outSlope: 0
        tangentMode: 136
        weightedMode: 0
        inWeight: 0.33333334
        outWeight: 0.33333334
      - serializedVersion: 3
        time: 0.15
        value: 0
        inSlope: 0
        outSlope: 0
        tangentMode: 136
        weightedMode: 0
        inWeight: 0.33333334
        outWeight: 0.33333334
      - serializedVersion: 3
        time: 0.6166667
        value: 0
        inSlope: 0
        outSlope: 0
        tangentMode: 136
        weightedMode: 0
        inWeight: 0.33333334
        outWeight: 0.33333334
      - serializedVersion: 3
        time: 0.68333334
        value: 0
        inSlope: 0
        outSlope: 0
        tangentMode: 136
        weightedMode: 0
        inWeight: 0.33333334
        outWeight: 0.33333334
      m_PreInfinity: 2
      m_PostInfinity: 2
      m_RotationOrder: 4
    attribute: m_LocalPosition.z
    path: GunReference
    classID: 4
    script: {fileID: 0}
  - curve:
      serializedVersion: 2
      m_Curve:
      - serializedVersion: 3
        time: 0
        value: 0
        inSlope: 0
        outSlope: 0
        tangentMode: 136
        weightedMode: 0
        inWeight: 0.33333334
        outWeight: 0.33333334
      - serializedVersion: 3
        time: 0.15
        value: 0
        inSlope: 0
        outSlope: 0
        tangentMode: 136
        weightedMode: 0
        inWeight: 0.33333334
        outWeight: 0.33333334
      - serializedVersion: 3
        time: 0.6166667
        value: 0
        inSlope: 0
        outSlope: 0
        tangentMode: 136
        weightedMode: 0
        inWeight: 0.33333334
        outWeight: 0.33333334
      - serializedVersion: 3
        time: 0.73333335
        value: 0
        inSlope: 0
        outSlope: 0
        tangentMode: 136
        weightedMode: 0
        inWeight: 0.33333334
        outWeight: 0.33333334
      m_PreInfinity: 2
      m_PostInfinity: 2
      m_RotationOrder: 4
    attribute: m_LocalPosition.x
    path: Hair/HairPoint
    classID: 4
    script: {fileID: 0}
  - curve:
      serializedVersion: 2
      m_Curve:
      - serializedVersion: 3
        time: 0
        value: 0.289
        inSlope: 0
        outSlope: 0
        tangentMode: 136
        weightedMode: 0
        inWeight: 0.33333334
        outWeight: 0.33333334
      - serializedVersion: 3
        time: 0.15
        value: -0.143
        inSlope: 0
        outSlope: 0
        tangentMode: 136
        weightedMode: 0
        inWeight: 0.33333334
        outWeight: 0.33333334
      - serializedVersion: 3
        time: 0.6166667
        value: -0.139
        inSlope: 0.027428623
        outSlope: 0.027428623
        tangentMode: 136
        weightedMode: 0
        inWeight: 0.33333334
        outWeight: 0.33333334
      - serializedVersion: 3
        time: 0.73333335
        value: 0.261
        inSlope: 0
        outSlope: 0
        tangentMode: 136
        weightedMode: 0
        inWeight: 0.33333334
        outWeight: 0.33333334
      m_PreInfinity: 2
      m_PostInfinity: 2
      m_RotationOrder: 4
    attribute: m_LocalPosition.y
    path: Hair/HairPoint
    classID: 4
    script: {fileID: 0}
  - curve:
      serializedVersion: 2
      m_Curve:
      - serializedVersion: 3
        time: 0
        value: 0
        inSlope: 0
        outSlope: 0
        tangentMode: 136
        weightedMode: 0
        inWeight: 0.33333334
        outWeight: 0.33333334
      - serializedVersion: 3
        time: 0.15
        value: 0
        inSlope: 0
        outSlope: 0
        tangentMode: 136
        weightedMode: 0
        inWeight: 0.33333334
        outWeight: 0.33333334
      - serializedVersion: 3
        time: 0.6166667
        value: 0
        inSlope: 0
        outSlope: 0
        tangentMode: 136
        weightedMode: 0
        inWeight: 0.33333334
        outWeight: 0.33333334
      - serializedVersion: 3
        time: 0.73333335
        value: 0
        inSlope: 0
        outSlope: 0
        tangentMode: 136
        weightedMode: 0
        inWeight: 0.33333334
        outWeight: 0.33333334
      m_PreInfinity: 2
      m_PostInfinity: 2
      m_RotationOrder: 4
    attribute: m_LocalPosition.z
    path: Hair/HairPoint
    classID: 4
    script: {fileID: 0}
  m_EulerEditorCurves: []
  m_HasGenericRootTransform: 0
  m_HasMotionFloatCurves: 0
  m_Events: []
