%YAML 1.1
%TAG !u! tag:unity3d.com,2011:
--- !u!114 &8221525975047365173
MonoBehaviour:
  m_ObjectHideFlags: 0
  m_CorrespondingSourceObject: {fileID: 0}
  m_PrefabInstance: {fileID: 0}
  m_PrefabAsset: {fileID: 0}
  m_GameObject: {fileID: 8096452567728653152}
  m_Enabled: 1
  m_EditorHideFlags: 0
  m_Script: {fileID: 11500000, guid: ac51287700700eb47abed143658ba5da, type: 3}
  m_Name: 
  m_EditorClassIdentifier: 
  possibleTiles: []
--- !u!1001 &1460231193268597397
PrefabInstance:
  m_ObjectHideFlags: 0
  serializedVersion: 2
  m_Modification:
    m_TransformParent: {fileID: 8257941701021681822}
    m_Modifications:
    - target: {fileID: 4209079887226568780, guid: adc1cb0f8e30fe44396047a423cf173c,
        type: 3}
      propertyPath: m_Name
      value: Horizontal_Tile (1) Variant 1
      objectReference: {fileID: 0}
    - target: {fileID: 4209079887226568780, guid: adc1cb0f8e30fe44396047a423cf173c,
        type: 3}
      propertyPath: m_TagString
      value: FullTile
      objectReference: {fileID: 0}
    - target: {fileID: 4209079887226568781, guid: adc1cb0f8e30fe44396047a423cf173c,
        type: 3}
      propertyPath: m_LocalPosition.x
      value: 0
      objectReference: {fileID: 0}
    - target: {fileID: 4209079887226568781, guid: adc1cb0f8e30fe44396047a423cf173c,
        type: 3}
      propertyPath: m_LocalPosition.y
      value: 1
      objectReference: {fileID: 0}
    - target: {fileID: 4209079887226568781, guid: adc1cb0f8e30fe44396047a423cf173c,
        type: 3}
      propertyPath: m_LocalPosition.z
      value: 0
      objectReference: {fileID: 0}
    - target: {fileID: 4209079887226568781, guid: adc1cb0f8e30fe44396047a423cf173c,
        type: 3}
      propertyPath: m_LocalRotation.x
      value: -0
      objectReference: {fileID: 0}
    - target: {fileID: 4209079887226568781, guid: adc1cb0f8e30fe44396047a423cf173c,
        type: 3}
      propertyPath: m_LocalRotation.y
      value: -0
      objectReference: {fileID: 0}
    - target: {fileID: 4209079887226568781, guid: adc1cb0f8e30fe44396047a423cf173c,
        type: 3}
      propertyPath: m_LocalRotation.z
      value: -0
      objectReference: {fileID: 0}
    - target: {fileID: 4209079887226568781, guid: adc1cb0f8e30fe44396047a423cf173c,
        type: 3}
      propertyPath: m_LocalRotation.w
      value: 1
      objectReference: {fileID: 0}
    - target: {fileID: 4209079887226568781, guid: adc1cb0f8e30fe44396047a423cf173c,
        type: 3}
      propertyPath: m_RootOrder
      value: 1
      objectReference: {fileID: 0}
    - target: {fileID: 4209079887226568781, guid: adc1cb0f8e30fe44396047a423cf173c,
        type: 3}
      propertyPath: m_LocalEulerAnglesHint.x
      value: 0
      objectReference: {fileID: 0}
    - target: {fileID: 4209079887226568781, guid: adc1cb0f8e30fe44396047a423cf173c,
        type: 3}
      propertyPath: m_LocalEulerAnglesHint.y
      value: 0
      objectReference: {fileID: 0}
    - target: {fileID: 4209079887226568781, guid: adc1cb0f8e30fe44396047a423cf173c,
        type: 3}
      propertyPath: m_LocalEulerAnglesHint.z
      value: 0
      objectReference: {fileID: 0}
    - target: {fileID: 7214670113201205749, guid: adc1cb0f8e30fe44396047a423cf173c,
        type: 3}
      propertyPath: m_IsActive
      value: 0
      objectReference: {fileID: 0}
    m_RemovedComponents: []
  m_SourcePrefab: {fileID: 100100000, guid: adc1cb0f8e30fe44396047a423cf173c, type: 3}
--- !u!1 &8096452567728653152 stripped
GameObject:
  m_CorrespondingSourceObject: {fileID: 7214670113201205749, guid: adc1cb0f8e30fe44396047a423cf173c,
    type: 3}
  m_PrefabInstance: {fileID: 1460231193268597397}
  m_PrefabAsset: {fileID: 0}
--- !u!1001 &4610170873999806856
PrefabInstance:
  m_ObjectHideFlags: 0
  serializedVersion: 2
  m_Modification:
    m_TransformParent: {fileID: 8257941701021681822}
    m_Modifications:
    - target: {fileID: 2278071208506948824, guid: 39e7d6b39fcc210468ea0970f3e580b5,
        type: 3}
      propertyPath: m_LocalPosition.x
      value: 0.1
      objectReference: {fileID: 0}
    - target: {fileID: 2278071208506948824, guid: 39e7d6b39fcc210468ea0970f3e580b5,
        type: 3}
      propertyPath: m_LocalPosition.y
      value: 2.3052208
      objectReference: {fileID: 0}
    - target: {fileID: 2278071208506948824, guid: 39e7d6b39fcc210468ea0970f3e580b5,
        type: 3}
      propertyPath: m_LocalPosition.z
      value: 0
      objectReference: {fileID: 0}
    - target: {fileID: 2278071208506948824, guid: 39e7d6b39fcc210468ea0970f3e580b5,
        type: 3}
      propertyPath: m_LocalRotation.x
      value: -0
      objectReference: {fileID: 0}
    - target: {fileID: 2278071208506948824, guid: 39e7d6b39fcc210468ea0970f3e580b5,
        type: 3}
      propertyPath: m_LocalRotation.y
      value: -0
      objectReference: {fileID: 0}
    - target: {fileID: 2278071208506948824, guid: 39e7d6b39fcc210468ea0970f3e580b5,
        type: 3}
      propertyPath: m_LocalRotation.z
      value: -0
      objectReference: {fileID: 0}
    - target: {fileID: 2278071208506948824, guid: 39e7d6b39fcc210468ea0970f3e580b5,
        type: 3}
      propertyPath: m_LocalRotation.w
      value: 1
      objectReference: {fileID: 0}
    - target: {fileID: 2278071208506948824, guid: 39e7d6b39fcc210468ea0970f3e580b5,
        type: 3}
      propertyPath: m_RootOrder
      value: 2
      objectReference: {fileID: 0}
    - target: {fileID: 2278071208506948824, guid: 39e7d6b39fcc210468ea0970f3e580b5,
        type: 3}
      propertyPath: m_LocalEulerAnglesHint.x
      value: 0
      objectReference: {fileID: 0}
    - target: {fileID: 2278071208506948824, guid: 39e7d6b39fcc210468ea0970f3e580b5,
        type: 3}
      propertyPath: m_LocalEulerAnglesHint.y
      value: 0
      objectReference: {fileID: 0}
    - target: {fileID: 2278071208506948824, guid: 39e7d6b39fcc210468ea0970f3e580b5,
        type: 3}
      propertyPath: m_LocalEulerAnglesHint.z
      value: 0
      objectReference: {fileID: 0}
    - target: {fileID: 5210722761307254430, guid: 39e7d6b39fcc210468ea0970f3e580b5,
        type: 3}
      propertyPath: m_Name
      value: Spawner
      objectReference: {fileID: 0}
    m_RemovedComponents: []
  m_SourcePrefab: {fileID: 100100000, guid: 39e7d6b39fcc210468ea0970f3e580b5, type: 3}
--- !u!1001 &5256753971991267539
PrefabInstance:
  m_ObjectHideFlags: 0
  serializedVersion: 2
  m_Modification:
    m_TransformParent: {fileID: 0}
    m_Modifications:
    - target: {fileID: 3500112189551481591, guid: adc1cb0f8e30fe44396047a423cf173c,
        type: 3}
      propertyPath: m_LocalPosition.y
      value: 2
      objectReference: {fileID: 0}
    - target: {fileID: 4209079887226568780, guid: adc1cb0f8e30fe44396047a423cf173c,
        type: 3}
      propertyPath: m_Name
      value: Horizontal_Tile (1) Variant 6
      objectReference: {fileID: 0}
    - target: {fileID: 4209079887226568780, guid: adc1cb0f8e30fe44396047a423cf173c,
        type: 3}
      propertyPath: m_TagString
      value: FullTile
      objectReference: {fileID: 0}
    - target: {fileID: 4209079887226568781, guid: adc1cb0f8e30fe44396047a423cf173c,
        type: 3}
      propertyPath: m_LocalPosition.x
      value: 0
      objectReference: {fileID: 0}
    - target: {fileID: 4209079887226568781, guid: adc1cb0f8e30fe44396047a423cf173c,
        type: 3}
      propertyPath: m_LocalPosition.y
      value: 0
      objectReference: {fileID: 0}
    - target: {fileID: 4209079887226568781, guid: adc1cb0f8e30fe44396047a423cf173c,
        type: 3}
      propertyPath: m_LocalPosition.z
      value: 0
      objectReference: {fileID: 0}
    - target: {fileID: 4209079887226568781, guid: adc1cb0f8e30fe44396047a423cf173c,
        type: 3}
      propertyPath: m_LocalRotation.x
      value: -0
      objectReference: {fileID: 0}
    - target: {fileID: 4209079887226568781, guid: adc1cb0f8e30fe44396047a423cf173c,
        type: 3}
      propertyPath: m_LocalRotation.y
      value: -0
      objectReference: {fileID: 0}
    - target: {fileID: 4209079887226568781, guid: adc1cb0f8e30fe44396047a423cf173c,
        type: 3}
      propertyPath: m_LocalRotation.z
      value: -0
      objectReference: {fileID: 0}
    - target: {fileID: 4209079887226568781, guid: adc1cb0f8e30fe44396047a423cf173c,
        type: 3}
      propertyPath: m_LocalRotation.w
      value: 1
      objectReference: {fileID: 0}
    - target: {fileID: 4209079887226568781, guid: adc1cb0f8e30fe44396047a423cf173c,
        type: 3}
      propertyPath: m_RootOrder
      value: 0
      objectReference: {fileID: 0}
    - target: {fileID: 4209079887226568781, guid: adc1cb0f8e30fe44396047a423cf173c,
        type: 3}
      propertyPath: m_LocalEulerAnglesHint.x
      value: 0
      objectReference: {fileID: 0}
    - target: {fileID: 4209079887226568781, guid: adc1cb0f8e30fe44396047a423cf173c,
        type: 3}
      propertyPath: m_LocalEulerAnglesHint.y
      value: 0
      objectReference: {fileID: 0}
    - target: {fileID: 4209079887226568781, guid: adc1cb0f8e30fe44396047a423cf173c,
        type: 3}
      propertyPath: m_LocalEulerAnglesHint.z
      value: 0
      objectReference: {fileID: 0}
    m_RemovedComponents: []
  m_SourcePrefab: {fileID: 100100000, guid: adc1cb0f8e30fe44396047a423cf173c, type: 3}
--- !u!4 &8257941701021681822 stripped
Transform:
  m_CorrespondingSourceObject: {fileID: 4209079887226568781, guid: adc1cb0f8e30fe44396047a423cf173c,
    type: 3}
  m_PrefabInstance: {fileID: 5256753971991267539}
  m_PrefabAsset: {fileID: 0}
