%YAML 1.1
%TAG !u! tag:unity3d.com,2011:
--- !u!74 &7400000
AnimationClip:
  m_ObjectHideFlags: 0
  m_CorrespondingSourceObject: {fileID: 0}
  m_PrefabInstance: {fileID: 0}
  m_PrefabAsset: {fileID: 0}
  m_Name: A_Run
  serializedVersion: 6
  m_Legacy: 0
  m_Compressed: 0
  m_UseHighQualityCurve: 1
  m_RotationCurves: []
  m_CompressedRotationCurves: []
  m_EulerCurves: []
  m_PositionCurves: []
  m_ScaleCurves: []
  m_FloatCurves: []
  m_PPtrCurves:
  - curve:
    - time: 0
      value: {fileID: 21300000, guid: 275291d28a860eb4c88fb8706cafc67c, type: 3}
    - time: 0.0055555557
      value: {fileID: 21300000, guid: 504ee4f27e5811d42be1d8f5d9907b25, type: 3}
    - time: 0.011111111
      value: {fileID: 21300000, guid: 27c37e222eb637a40be7c3762704bd61, type: 3}
    - time: 0.016666668
      value: {fileID: 21300000, guid: acd6f628845123346804eb88cc3af5d6, type: 3}
    - time: 0.022222223
      value: {fileID: 21300000, guid: 7185589bdb93baa48a85d98955da6aa5, type: 3}
    - time: 0.027777778
      value: {fileID: 21300000, guid: 24e2104f1a677c44fb100965d0828633, type: 3}
    - time: 0.033333335
      value: {fileID: 21300000, guid: be91bf09bb9e91248a56d7338fb32969, type: 3}
    - time: 0.03888889
      value: {fileID: 21300000, guid: 6107c6ff4496e464da58036f27e9b55c, type: 3}
    - time: 0.044444446
      value: {fileID: 21300000, guid: 1ea2fa468e69fef4babcf5e71963007b, type: 3}
    - time: 0.05
      value: {fileID: 21300000, guid: 2bd99a12929094743badec447b77e7d3, type: 3}
    - time: 0.055555556
      value: {fileID: 21300000, guid: 97eaba8b297521140a6570b6bf5d7a73, type: 3}
    - time: 0.06111111
      value: {fileID: 21300000, guid: 2c7b883ec028483468545de570bbb29b, type: 3}
    - time: 0.06666667
      value: {fileID: 21300000, guid: 499b7f62c2c8b38489526103267bcb29, type: 3}
    - time: 0.072222225
      value: {fileID: 21300000, guid: 4229b4e065437eb408550413245735fe, type: 3}
    - time: 0.07777778
      value: {fileID: 21300000, guid: caf3dcf0dffbcf344813fd54bd7e2890, type: 3}
    - time: 0.083333336
      value: {fileID: 21300000, guid: 01a7ddede5f38684d9bea51198c0d930, type: 3}
    - time: 0.08888889
      value: {fileID: 21300000, guid: 139ebede7e91c3f4cae1b457ef381ee8, type: 3}
    - time: 0.094444446
      value: {fileID: 21300000, guid: 526de3f6fc50a484a862b7ca8851279c, type: 3}
    - time: 0.1
      value: {fileID: 21300000, guid: 8f92c8d65a31dd84eb6c3ad95eeb3473, type: 3}
    - time: 0.10555556
      value: {fileID: 21300000, guid: 48d4f1b554fb454498b147c5e690402e, type: 3}
    - time: 0.11111111
      value: {fileID: 21300000, guid: dd9e6e036fce0e04c8e1cbd791922634, type: 3}
    - time: 0.11666667
      value: {fileID: 21300000, guid: c6d0376f286dae548bef8af3f8bc029a, type: 3}
    - time: 0.12222222
      value: {fileID: 21300000, guid: 0974e543f5aaf0440a16dfa9be9d7bdf, type: 3}
    - time: 0.12777779
      value: {fileID: 21300000, guid: 160c80959969f3d43af7c96a2891670b, type: 3}
    - time: 0.13333334
      value: {fileID: 21300000, guid: 2e9e264ea5bc7f249a23ee2a157d6867, type: 3}
    - time: 0.1388889
      value: {fileID: 21300000, guid: ed995babfe801b24cac72013b4a2c000, type: 3}
    - time: 0.14444445
      value: {fileID: 21300000, guid: 7ebd3f83aaf88844884aeb754d898dad, type: 3}
    - time: 0.15
      value: {fileID: 21300000, guid: 64759bf1acec174479f728cf2369a423, type: 3}
    - time: 0.15555556
      value: {fileID: 21300000, guid: 81d45a16bdc29d44eba062571ffb2f34, type: 3}
    - time: 0.16111112
      value: {fileID: 21300000, guid: a73a0ee81b8db364e86bc9a0be0a0738, type: 3}
    - time: 0.16666667
      value: {fileID: 21300000, guid: 41f03d8c8a1816246b02e16cea42bb30, type: 3}
    - time: 0.17222223
      value: {fileID: 21300000, guid: 591c62a50f899be4a92413ed7aa2004a, type: 3}
    - time: 0.17777778
      value: {fileID: 21300000, guid: 07f72b47dc584c147bbf4ee10e304d7e, type: 3}
    - time: 0.18333334
      value: {fileID: 21300000, guid: 39ad2b52b7dd0a5498bab7d8b01f55d9, type: 3}
    - time: 0.18888889
      value: {fileID: 21300000, guid: 4e5e8f7a4ec08e2408e17ebabeaa83e7, type: 3}
    - time: 0.19444445
      value: {fileID: 21300000, guid: b4794325a799dea4db5bb65404d08e1e, type: 3}
    - time: 0.2
      value: {fileID: 21300000, guid: b05af0855423b6641b0ae08992c7fb8b, type: 3}
    - time: 0.20555556
      value: {fileID: 21300000, guid: dbc1901c5f281cb4ba78225ab176b0ab, type: 3}
    - time: 0.21111111
      value: {fileID: 21300000, guid: b422256741e7e17449b72b340275cb29, type: 3}
    - time: 0.21666667
      value: {fileID: 21300000, guid: 91a15f4d117b08c47beac46c43999d06, type: 3}
    - time: 0.22222222
      value: {fileID: 21300000, guid: a942e99f3278da44690b3e309b496859, type: 3}
    - time: 0.22777778
      value: {fileID: 21300000, guid: 5c754c5caef6e604e99daa7682007cd6, type: 3}
    - time: 0.23333333
      value: {fileID: 21300000, guid: 69076a033b10fbb4fb4530854bdf118b, type: 3}
    - time: 0.23888889
      value: {fileID: 21300000, guid: c4a781198441d0f4f95c9cbf86018d6e, type: 3}
    - time: 0.24444444
      value: {fileID: 21300000, guid: eeec3f32ac8416c488c431381b7a774e, type: 3}
    - time: 0.25
      value: {fileID: 21300000, guid: ef52a94397e5b2b46acabca278198198, type: 3}
    - time: 0.25555557
      value: {fileID: 21300000, guid: b73b596570f467e48b29f46723b7e5e7, type: 3}
    - time: 0.2611111
      value: {fileID: 21300000, guid: 45b0c22639e790840b192b33750be2c9, type: 3}
    - time: 0.26666668
      value: {fileID: 21300000, guid: 2c9a7614efd87f84599669cc5229236e, type: 3}
    attribute: m_Sprite
    path: 
    classID: 212
    script: {fileID: 0}
  m_SampleRate: 180
  m_WrapMode: 0
  m_Bounds:
    m_Center: {x: 0, y: 0, z: 0}
    m_Extent: {x: 0, y: 0, z: 0}
  m_ClipBindingConstant:
    genericBindings:
    - serializedVersion: 2
      path: 0
      attribute: 0
      script: {fileID: 0}
      typeID: 212
      customType: 23
      isPPtrCurve: 1
    pptrCurveMapping:
    - {fileID: 21300000, guid: 275291d28a860eb4c88fb8706cafc67c, type: 3}
    - {fileID: 21300000, guid: 504ee4f27e5811d42be1d8f5d9907b25, type: 3}
    - {fileID: 21300000, guid: 27c37e222eb637a40be7c3762704bd61, type: 3}
    - {fileID: 21300000, guid: acd6f628845123346804eb88cc3af5d6, type: 3}
    - {fileID: 21300000, guid: 7185589bdb93baa48a85d98955da6aa5, type: 3}
    - {fileID: 21300000, guid: 24e2104f1a677c44fb100965d0828633, type: 3}
    - {fileID: 21300000, guid: be91bf09bb9e91248a56d7338fb32969, type: 3}
    - {fileID: 21300000, guid: 6107c6ff4496e464da58036f27e9b55c, type: 3}
    - {fileID: 21300000, guid: 1ea2fa468e69fef4babcf5e71963007b, type: 3}
    - {fileID: 21300000, guid: 2bd99a12929094743badec447b77e7d3, type: 3}
    - {fileID: 21300000, guid: 97eaba8b297521140a6570b6bf5d7a73, type: 3}
    - {fileID: 21300000, guid: 2c7b883ec028483468545de570bbb29b, type: 3}
    - {fileID: 21300000, guid: 499b7f62c2c8b38489526103267bcb29, type: 3}
    - {fileID: 21300000, guid: 4229b4e065437eb408550413245735fe, type: 3}
    - {fileID: 21300000, guid: caf3dcf0dffbcf344813fd54bd7e2890, type: 3}
    - {fileID: 21300000, guid: 01a7ddede5f38684d9bea51198c0d930, type: 3}
    - {fileID: 21300000, guid: 139ebede7e91c3f4cae1b457ef381ee8, type: 3}
    - {fileID: 21300000, guid: 526de3f6fc50a484a862b7ca8851279c, type: 3}
    - {fileID: 21300000, guid: 8f92c8d65a31dd84eb6c3ad95eeb3473, type: 3}
    - {fileID: 21300000, guid: 48d4f1b554fb454498b147c5e690402e, type: 3}
    - {fileID: 21300000, guid: dd9e6e036fce0e04c8e1cbd791922634, type: 3}
    - {fileID: 21300000, guid: c6d0376f286dae548bef8af3f8bc029a, type: 3}
    - {fileID: 21300000, guid: 0974e543f5aaf0440a16dfa9be9d7bdf, type: 3}
    - {fileID: 21300000, guid: 160c80959969f3d43af7c96a2891670b, type: 3}
    - {fileID: 21300000, guid: 2e9e264ea5bc7f249a23ee2a157d6867, type: 3}
    - {fileID: 21300000, guid: ed995babfe801b24cac72013b4a2c000, type: 3}
    - {fileID: 21300000, guid: 7ebd3f83aaf88844884aeb754d898dad, type: 3}
    - {fileID: 21300000, guid: 64759bf1acec174479f728cf2369a423, type: 3}
    - {fileID: 21300000, guid: 81d45a16bdc29d44eba062571ffb2f34, type: 3}
    - {fileID: 21300000, guid: a73a0ee81b8db364e86bc9a0be0a0738, type: 3}
    - {fileID: 21300000, guid: 41f03d8c8a1816246b02e16cea42bb30, type: 3}
    - {fileID: 21300000, guid: 591c62a50f899be4a92413ed7aa2004a, type: 3}
    - {fileID: 21300000, guid: 07f72b47dc584c147bbf4ee10e304d7e, type: 3}
    - {fileID: 21300000, guid: 39ad2b52b7dd0a5498bab7d8b01f55d9, type: 3}
    - {fileID: 21300000, guid: 4e5e8f7a4ec08e2408e17ebabeaa83e7, type: 3}
    - {fileID: 21300000, guid: b4794325a799dea4db5bb65404d08e1e, type: 3}
    - {fileID: 21300000, guid: b05af0855423b6641b0ae08992c7fb8b, type: 3}
    - {fileID: 21300000, guid: dbc1901c5f281cb4ba78225ab176b0ab, type: 3}
    - {fileID: 21300000, guid: b422256741e7e17449b72b340275cb29, type: 3}
    - {fileID: 21300000, guid: 91a15f4d117b08c47beac46c43999d06, type: 3}
    - {fileID: 21300000, guid: a942e99f3278da44690b3e309b496859, type: 3}
    - {fileID: 21300000, guid: 5c754c5caef6e604e99daa7682007cd6, type: 3}
    - {fileID: 21300000, guid: 69076a033b10fbb4fb4530854bdf118b, type: 3}
    - {fileID: 21300000, guid: c4a781198441d0f4f95c9cbf86018d6e, type: 3}
    - {fileID: 21300000, guid: eeec3f32ac8416c488c431381b7a774e, type: 3}
    - {fileID: 21300000, guid: ef52a94397e5b2b46acabca278198198, type: 3}
    - {fileID: 21300000, guid: b73b596570f467e48b29f46723b7e5e7, type: 3}
    - {fileID: 21300000, guid: 45b0c22639e790840b192b33750be2c9, type: 3}
    - {fileID: 21300000, guid: 2c9a7614efd87f84599669cc5229236e, type: 3}
  m_AnimationClipSettings:
    serializedVersion: 2
    m_AdditiveReferencePoseClip: {fileID: 0}
    m_AdditiveReferencePoseTime: 0
    m_StartTime: 0
    m_StopTime: 0.27222225
    m_OrientationOffsetY: 0
    m_Level: 0
    m_CycleOffset: 0
    m_HasAdditiveReferencePose: 0
    m_LoopTime: 1
    m_LoopBlend: 0
    m_LoopBlendOrientation: 0
    m_LoopBlendPositionY: 0
    m_LoopBlendPositionXZ: 0
    m_KeepOriginalOrientation: 0
    m_KeepOriginalPositionY: 1
    m_KeepOriginalPositionXZ: 0
    m_HeightFromFeet: 0
    m_Mirror: 0
  m_EditorCurves: []
  m_EulerEditorCurves: []
  m_HasGenericRootTransform: 0
  m_HasMotionFloatCurves: 0
  m_Events: []
