%YAML 1.1
%TAG !u! tag:unity3d.com,2011:
--- !u!74 &7400000
AnimationClip:
  m_ObjectHideFlags: 0
  m_CorrespondingSourceObject: {fileID: 0}
  m_PrefabInstance: {fileID: 0}
  m_PrefabAsset: {fileID: 0}
  m_Name: A_Slide
  serializedVersion: 6
  m_Legacy: 0
  m_Compressed: 0
  m_UseHighQualityCurve: 1
  m_RotationCurves: []
  m_CompressedRotationCurves: []
  m_EulerCurves: []
  m_PositionCurves:
  - curve:
      serializedVersion: 2
      m_Curve:
      - serializedVersion: 3
        time: 0
        value: {x: 0, y: 0.179, z: 0}
        inSlope: {x: 0, y: 0, z: 0}
        outSlope: {x: 0, y: 0, z: 0}
        tangentMode: 0
        weightedMode: 0
        inWeight: {x: 0.33333334, y: 0.33333334, z: 0.33333334}
        outWeight: {x: 0.33333334, y: 0.33333334, z: 0.33333334}
      - serializedVersion: 3
        time: 0.07777778
        value: {x: 0, y: 0.13, z: 0}
        inSlope: {x: 0, y: -1.3569233, z: 0}
        outSlope: {x: 0, y: -1.3569233, z: 0}
        tangentMode: 0
        weightedMode: 0
        inWeight: {x: 0.33333334, y: 0.33333334, z: 0.33333334}
        outWeight: {x: 0.33333334, y: 0.33333334, z: 0.33333334}
      - serializedVersion: 3
        time: 0.14444445
        value: {x: 0.036, y: -0.16, z: 0}
        inSlope: {x: 0, y: 0, z: 0}
        outSlope: {x: 0, y: 0, z: 0}
        tangentMode: 0
        weightedMode: 0
        inWeight: {x: 0.33333334, y: 0.33333334, z: 0.33333334}
        outWeight: {x: 0.33333334, y: 0.33333334, z: 0.33333334}
      - serializedVersion: 3
        time: 0.45555556
        value: {x: 0.036, y: -0.157, z: 0}
        inSlope: {x: 0, y: 0.035999898, z: 0}
        outSlope: {x: 0, y: 0.035999898, z: 0}
        tangentMode: 0
        weightedMode: 0
        inWeight: {x: 0.33333334, y: 0.33333334, z: 0.33333334}
        outWeight: {x: 0.33333334, y: 0.33333334, z: 0.33333334}
      - serializedVersion: 3
        time: 0.47777778
        value: {x: 0, y: 0.179, z: 0}
        inSlope: {x: 0, y: 0, z: 0}
        outSlope: {x: 0, y: 0, z: 0}
        tangentMode: 0
        weightedMode: 0
        inWeight: {x: 0.33333334, y: 0.33333334, z: 0.33333334}
        outWeight: {x: 0.33333334, y: 0.33333334, z: 0.33333334}
      m_PreInfinity: 2
      m_PostInfinity: 2
      m_RotationOrder: 4
    path: GunReference
  - curve:
      serializedVersion: 2
      m_Curve:
      - serializedVersion: 3
        time: 0
        value: {x: 0, y: -0.007, z: 0}
        inSlope: {x: 0, y: 0, z: 0}
        outSlope: {x: 0, y: 0, z: 0}
        tangentMode: 0
        weightedMode: 0
        inWeight: {x: 0.33333334, y: 0.33333334, z: 0.33333334}
        outWeight: {x: 0.33333334, y: 0.33333334, z: 0.33333334}
      - serializedVersion: 3
        time: 0.055555556
        value: {x: 0, y: 0.006, z: 0}
        inSlope: {x: 0, y: 0, z: 0}
        outSlope: {x: 0, y: 0, z: 0}
        tangentMode: 0
        weightedMode: 0
        inWeight: {x: 0.33333334, y: 0.33333334, z: 0.33333334}
        outWeight: {x: 0.33333334, y: 0.33333334, z: 0.33333334}
      - serializedVersion: 3
        time: 0.14444445
        value: {x: 0, y: -0.398, z: 0}
        inSlope: {x: 0, y: 0, z: 0}
        outSlope: {x: 0, y: 0, z: 0}
        tangentMode: 0
        weightedMode: 0
        inWeight: {x: 0.33333334, y: 0.33333334, z: 0.33333334}
        outWeight: {x: 0.33333334, y: 0.33333334, z: 0.33333334}
      - serializedVersion: 3
        time: 0.45555556
        value: {x: 0, y: -0.395, z: 0}
        inSlope: {x: 0, y: 0.031764615, z: 0}
        outSlope: {x: 0, y: 0.031764615, z: 0}
        tangentMode: 0
        weightedMode: 0
        inWeight: {x: 0.33333334, y: 0.33333334, z: 0.33333334}
        outWeight: {x: 0.33333334, y: 0.33333334, z: 0.33333334}
      - serializedVersion: 3
        time: 0.5222222
        value: {x: 0, y: -0.06, z: 0}
        inSlope: {x: 0, y: 0, z: 0}
        outSlope: {x: 0, y: 0, z: 0}
        tangentMode: 0
        weightedMode: 0
        inWeight: {x: 0.33333334, y: 0.33333334, z: 0.33333334}
        outWeight: {x: 0.33333334, y: 0.33333334, z: 0.33333334}
      m_PreInfinity: 2
      m_PostInfinity: 2
      m_RotationOrder: 4
    path: Hair
  m_ScaleCurves: []
  m_FloatCurves: []
  m_PPtrCurves:
  - curve:
    - time: 0
      value: {fileID: 21300000, guid: 873252f72667d0849bd93b3b9063aaed, type: 3}
    - time: 0.011111111
      value: {fileID: 21300000, guid: 51fe7a117e5aa0a4e8a8e209a658c6cf, type: 3}
    - time: 0.022222223
      value: {fileID: 21300000, guid: cb88726d84e968f4cb7f9a71545b18aa, type: 3}
    - time: 0.033333335
      value: {fileID: 21300000, guid: cf4fc743efa1e2349bbf5eebd1037cb3, type: 3}
    - time: 0.044444446
      value: {fileID: 21300000, guid: ef8dd92f56f2ffe43917f54c99b6145b, type: 3}
    - time: 0.055555556
      value: {fileID: 21300000, guid: 511f2d422ba73464ea92944ab3e167d4, type: 3}
    - time: 0.06666667
      value: {fileID: 21300000, guid: fe9f0247c4f35d147a538b34d131474d, type: 3}
    - time: 0.07777778
      value: {fileID: 21300000, guid: f1996a613e1aec0419f1754fe70c473d, type: 3}
    - time: 0.08888889
      value: {fileID: 21300000, guid: 408d21a19da95344d9650147cec9ff0e, type: 3}
    - time: 0.1
      value: {fileID: 21300000, guid: 289b1ac917f00244ea43774e362e0b57, type: 3}
    - time: 0.11111111
      value: {fileID: 21300000, guid: 88e9d1f1580a1044eb1112388df5c03f, type: 3}
    - time: 0.12222222
      value: {fileID: 21300000, guid: b1ee4f843a0694048847ee5b987294e1, type: 3}
    - time: 0.13333334
      value: {fileID: 21300000, guid: 909b414c7058cfa4cb6a40cd2fae13ab, type: 3}
    - time: 0.14444445
      value: {fileID: 21300000, guid: 189c2e68da1e77d4da854ec240b2257c, type: 3}
    - time: 0.15555556
      value: {fileID: 21300000, guid: 4a07cffb33fc35b459025da28cafa231, type: 3}
    - time: 0.16666667
      value: {fileID: 21300000, guid: fc39210d67d26034cbfbf5010e252048, type: 3}
    - time: 0.17777778
      value: {fileID: 21300000, guid: 8433339966178274b83fed18e4fd99b2, type: 3}
    - time: 0.18888889
      value: {fileID: 21300000, guid: 8ae8a8c928c4ee548b516e2d0f70a5f3, type: 3}
    - time: 0.2
      value: {fileID: 21300000, guid: 2e8669b659abc2b40a324f8065117cf2, type: 3}
    - time: 0.21111111
      value: {fileID: 21300000, guid: 01263bb6e35902849b7c2b144d9090b7, type: 3}
    - time: 0.22222222
      value: {fileID: 21300000, guid: be81fdfbc4c0eb84eb6fda4165b73b14, type: 3}
    - time: 0.23333333
      value: {fileID: 21300000, guid: b2be95dabf30d6344851e35a19a8c435, type: 3}
    - time: 0.24444444
      value: {fileID: 21300000, guid: 15a4186f0f1459a4eb5e94bd780396ff, type: 3}
    - time: 0.25555557
      value: {fileID: 21300000, guid: fb43b6a3cd821a944820da22b6fcd857, type: 3}
    - time: 0.26666668
      value: {fileID: 21300000, guid: 8b4d859ed3c7a024885db6c56cb38a12, type: 3}
    - time: 0.2777778
      value: {fileID: 21300000, guid: 61b980d53c5ec294a8cb89bd90c3ea47, type: 3}
    - time: 0.2888889
      value: {fileID: 21300000, guid: fc9c7ff78cb041c4a9eabdf005160282, type: 3}
    - time: 0.3
      value: {fileID: 21300000, guid: 2e95a95d72b9208479e07256f5e5c50e, type: 3}
    - time: 0.31111112
      value: {fileID: 21300000, guid: 768c68ba6362a5a468a749450e365762, type: 3}
    - time: 0.32222223
      value: {fileID: 21300000, guid: ab186dabecf9acf4bb260f721a683ecd, type: 3}
    - time: 0.33333334
      value: {fileID: 21300000, guid: fcb6f08ec3629aa48bacfe9ef997a622, type: 3}
    - time: 0.34444445
      value: {fileID: 21300000, guid: 0cd64293c60160c4d945601fc76eefc9, type: 3}
    - time: 0.35555556
      value: {fileID: 21300000, guid: 37ff372858eef6648a756e1510b41482, type: 3}
    - time: 0.36666667
      value: {fileID: 21300000, guid: 20b80eb7b13208f47a11c876daa4fad2, type: 3}
    - time: 0.37777779
      value: {fileID: 21300000, guid: 77e317eef62d78948a46b633034bc0b4, type: 3}
    - time: 0.3888889
      value: {fileID: 21300000, guid: 3b2d773fb379f5a47a136d2f754303f2, type: 3}
    - time: 0.4
      value: {fileID: 21300000, guid: aa8791a10ec0c234aafe3f51ff0d2569, type: 3}
    - time: 0.41111112
      value: {fileID: 21300000, guid: dd742bfb765a22045924eb0ae532a015, type: 3}
    - time: 0.42222223
      value: {fileID: 21300000, guid: 2709fd350360b4c439fd028e130af266, type: 3}
    - time: 0.43333334
      value: {fileID: 21300000, guid: eabbb2d98576ffe41a21de48e39c8a15, type: 3}
    - time: 0.44444445
      value: {fileID: 21300000, guid: b23cd58a70eeb9342ab25f7695e5daa2, type: 3}
    - time: 0.45555556
      value: {fileID: 21300000, guid: 8e8e882f9e3e7184ca74a7c54f5435c2, type: 3}
    - time: 0.46666667
      value: {fileID: 21300000, guid: 165fa667de3e7ed4ab41783f7dbc8ac7, type: 3}
    - time: 0.47777778
      value: {fileID: 21300000, guid: b370c73f9d5324b40b242a041dc54637, type: 3}
    - time: 0.4888889
      value: {fileID: 21300000, guid: a58cbdd5687b6db46be6d0d659ef833c, type: 3}
    - time: 0.5
      value: {fileID: 21300000, guid: 5f5998291c3674c4e951b280ec839ef2, type: 3}
    - time: 0.51111114
      value: {fileID: 21300000, guid: b404c8e651b6db84295ed73f748a769b, type: 3}
    - time: 0.5222222
      value: {fileID: 21300000, guid: c9ce2ff3346f0c342964aa8fcc9a38df, type: 3}
    attribute: m_Sprite
    path: 
    classID: 212
    script: {fileID: 0}
  m_SampleRate: 90
  m_WrapMode: 0
  m_Bounds:
    m_Center: {x: 0, y: 0, z: 0}
    m_Extent: {x: 0, y: 0, z: 0}
  m_ClipBindingConstant:
    genericBindings:
    - serializedVersion: 2
      path: 3039726972
      attribute: 1
      script: {fileID: 0}
      typeID: 4
      customType: 0
      isPPtrCurve: 0
    - serializedVersion: 2
      path: 1019596327
      attribute: 1
      script: {fileID: 0}
      typeID: 4
      customType: 0
      isPPtrCurve: 0
    - serializedVersion: 2
      path: 0
      attribute: 0
      script: {fileID: 0}
      typeID: 212
      customType: 23
      isPPtrCurve: 1
    pptrCurveMapping:
    - {fileID: 21300000, guid: 873252f72667d0849bd93b3b9063aaed, type: 3}
    - {fileID: 21300000, guid: 51fe7a117e5aa0a4e8a8e209a658c6cf, type: 3}
    - {fileID: 21300000, guid: cb88726d84e968f4cb7f9a71545b18aa, type: 3}
    - {fileID: 21300000, guid: cf4fc743efa1e2349bbf5eebd1037cb3, type: 3}
    - {fileID: 21300000, guid: ef8dd92f56f2ffe43917f54c99b6145b, type: 3}
    - {fileID: 21300000, guid: 511f2d422ba73464ea92944ab3e167d4, type: 3}
    - {fileID: 21300000, guid: fe9f0247c4f35d147a538b34d131474d, type: 3}
    - {fileID: 21300000, guid: f1996a613e1aec0419f1754fe70c473d, type: 3}
    - {fileID: 21300000, guid: 408d21a19da95344d9650147cec9ff0e, type: 3}
    - {fileID: 21300000, guid: 289b1ac917f00244ea43774e362e0b57, type: 3}
    - {fileID: 21300000, guid: 88e9d1f1580a1044eb1112388df5c03f, type: 3}
    - {fileID: 21300000, guid: b1ee4f843a0694048847ee5b987294e1, type: 3}
    - {fileID: 21300000, guid: 909b414c7058cfa4cb6a40cd2fae13ab, type: 3}
    - {fileID: 21300000, guid: 189c2e68da1e77d4da854ec240b2257c, type: 3}
    - {fileID: 21300000, guid: 4a07cffb33fc35b459025da28cafa231, type: 3}
    - {fileID: 21300000, guid: fc39210d67d26034cbfbf5010e252048, type: 3}
    - {fileID: 21300000, guid: 8433339966178274b83fed18e4fd99b2, type: 3}
    - {fileID: 21300000, guid: 8ae8a8c928c4ee548b516e2d0f70a5f3, type: 3}
    - {fileID: 21300000, guid: 2e8669b659abc2b40a324f8065117cf2, type: 3}
    - {fileID: 21300000, guid: 01263bb6e35902849b7c2b144d9090b7, type: 3}
    - {fileID: 21300000, guid: be81fdfbc4c0eb84eb6fda4165b73b14, type: 3}
    - {fileID: 21300000, guid: b2be95dabf30d6344851e35a19a8c435, type: 3}
    - {fileID: 21300000, guid: 15a4186f0f1459a4eb5e94bd780396ff, type: 3}
    - {fileID: 21300000, guid: fb43b6a3cd821a944820da22b6fcd857, type: 3}
    - {fileID: 21300000, guid: 8b4d859ed3c7a024885db6c56cb38a12, type: 3}
    - {fileID: 21300000, guid: 61b980d53c5ec294a8cb89bd90c3ea47, type: 3}
    - {fileID: 21300000, guid: fc9c7ff78cb041c4a9eabdf005160282, type: 3}
    - {fileID: 21300000, guid: 2e95a95d72b9208479e07256f5e5c50e, type: 3}
    - {fileID: 21300000, guid: 768c68ba6362a5a468a749450e365762, type: 3}
    - {fileID: 21300000, guid: ab186dabecf9acf4bb260f721a683ecd, type: 3}
    - {fileID: 21300000, guid: fcb6f08ec3629aa48bacfe9ef997a622, type: 3}
    - {fileID: 21300000, guid: 0cd64293c60160c4d945601fc76eefc9, type: 3}
    - {fileID: 21300000, guid: 37ff372858eef6648a756e1510b41482, type: 3}
    - {fileID: 21300000, guid: 20b80eb7b13208f47a11c876daa4fad2, type: 3}
    - {fileID: 21300000, guid: 77e317eef62d78948a46b633034bc0b4, type: 3}
    - {fileID: 21300000, guid: 3b2d773fb379f5a47a136d2f754303f2, type: 3}
    - {fileID: 21300000, guid: aa8791a10ec0c234aafe3f51ff0d2569, type: 3}
    - {fileID: 21300000, guid: dd742bfb765a22045924eb0ae532a015, type: 3}
    - {fileID: 21300000, guid: 2709fd350360b4c439fd028e130af266, type: 3}
    - {fileID: 21300000, guid: eabbb2d98576ffe41a21de48e39c8a15, type: 3}
    - {fileID: 21300000, guid: b23cd58a70eeb9342ab25f7695e5daa2, type: 3}
    - {fileID: 21300000, guid: 8e8e882f9e3e7184ca74a7c54f5435c2, type: 3}
    - {fileID: 21300000, guid: 165fa667de3e7ed4ab41783f7dbc8ac7, type: 3}
    - {fileID: 21300000, guid: b370c73f9d5324b40b242a041dc54637, type: 3}
    - {fileID: 21300000, guid: a58cbdd5687b6db46be6d0d659ef833c, type: 3}
    - {fileID: 21300000, guid: 5f5998291c3674c4e951b280ec839ef2, type: 3}
    - {fileID: 21300000, guid: b404c8e651b6db84295ed73f748a769b, type: 3}
    - {fileID: 21300000, guid: c9ce2ff3346f0c342964aa8fcc9a38df, type: 3}
  m_AnimationClipSettings:
    serializedVersion: 2
    m_AdditiveReferencePoseClip: {fileID: 0}
    m_AdditiveReferencePoseTime: 0
    m_StartTime: 0
    m_StopTime: 0.53333336
    m_OrientationOffsetY: 0
    m_Level: 0
    m_CycleOffset: 0
    m_HasAdditiveReferencePose: 0
    m_LoopTime: 0
    m_LoopBlend: 0
    m_LoopBlendOrientation: 0
    m_LoopBlendPositionY: 0
    m_LoopBlendPositionXZ: 0
    m_KeepOriginalOrientation: 0
    m_KeepOriginalPositionY: 1
    m_KeepOriginalPositionXZ: 0
    m_HeightFromFeet: 0
    m_Mirror: 0
  m_EditorCurves:
  - curve:
      serializedVersion: 2
      m_Curve:
      - serializedVersion: 3
        time: 0
        value: 0
        inSlope: 0
        outSlope: 0
        tangentMode: 136
        weightedMode: 0
        inWeight: 0.33333334
        outWeight: 0.33333334
      - serializedVersion: 3
        time: 0.07777778
        value: 0
        inSlope: 0
        outSlope: 0
        tangentMode: 136
        weightedMode: 0
        inWeight: 0.33333334
        outWeight: 0.33333334
      - serializedVersion: 3
        time: 0.14444445
        value: 0.036
        inSlope: 0
        outSlope: 0
        tangentMode: 136
        weightedMode: 0
        inWeight: 0.33333334
        outWeight: 0.33333334
      - serializedVersion: 3
        time: 0.45555556
        value: 0.036
        inSlope: 0
        outSlope: 0
        tangentMode: 136
        weightedMode: 0
        inWeight: 0.33333334
        outWeight: 0.33333334
      - serializedVersion: 3
        time: 0.47777778
        value: 0
        inSlope: 0
        outSlope: 0
        tangentMode: 136
        weightedMode: 0
        inWeight: 0.33333334
        outWeight: 0.33333334
      m_PreInfinity: 2
      m_PostInfinity: 2
      m_RotationOrder: 4
    attribute: m_LocalPosition.x
    path: GunReference
    classID: 4
    script: {fileID: 0}
  - curve:
      serializedVersion: 2
      m_Curve:
      - serializedVersion: 3
        time: 0
        value: 0.179
        inSlope: 0
        outSlope: 0
        tangentMode: 136
        weightedMode: 0
        inWeight: 0.33333334
        outWeight: 0.33333334
      - serializedVersion: 3
        time: 0.07777778
        value: 0.13
        inSlope: -1.3569233
        outSlope: -1.3569233
        tangentMode: 136
        weightedMode: 0
        inWeight: 0.33333334
        outWeight: 0.33333334
      - serializedVersion: 3
        time: 0.14444445
        value: -0.16
        inSlope: 0
        outSlope: 0
        tangentMode: 136
        weightedMode: 0
        inWeight: 0.33333334
        outWeight: 0.33333334
      - serializedVersion: 3
        time: 0.45555556
        value: -0.157
        inSlope: 0.035999898
        outSlope: 0.035999898
        tangentMode: 136
        weightedMode: 0
        inWeight: 0.33333334
        outWeight: 0.33333334
      - serializedVersion: 3
        time: 0.47777778
        value: 0.179
        inSlope: 0
        outSlope: 0
        tangentMode: 136
        weightedMode: 0
        inWeight: 0.33333334
        outWeight: 0.33333334
      m_PreInfinity: 2
      m_PostInfinity: 2
      m_RotationOrder: 4
    attribute: m_LocalPosition.y
    path: GunReference
    classID: 4
    script: {fileID: 0}
  - curve:
      serializedVersion: 2
      m_Curve:
      - serializedVersion: 3
        time: 0
        value: 0
        inSlope: 0
        outSlope: 0
        tangentMode: 136
        weightedMode: 0
        inWeight: 0.33333334
        outWeight: 0.33333334
      - serializedVersion: 3
        time: 0.07777778
        value: 0
        inSlope: 0
        outSlope: 0
        tangentMode: 136
        weightedMode: 0
        inWeight: 0.33333334
        outWeight: 0.33333334
      - serializedVersion: 3
        time: 0.14444445
        value: 0
        inSlope: 0
        outSlope: 0
        tangentMode: 136
        weightedMode: 0
        inWeight: 0.33333334
        outWeight: 0.33333334
      - serializedVersion: 3
        time: 0.45555556
        value: 0
        inSlope: 0
        outSlope: 0
        tangentMode: 136
        weightedMode: 0
        inWeight: 0.33333334
        outWeight: 0.33333334
      - serializedVersion: 3
        time: 0.47777778
        value: 0
        inSlope: 0
        outSlope: 0
        tangentMode: 136
        weightedMode: 0
        inWeight: 0.33333334
        outWeight: 0.33333334
      m_PreInfinity: 2
      m_PostInfinity: 2
      m_RotationOrder: 4
    attribute: m_LocalPosition.z
    path: GunReference
    classID: 4
    script: {fileID: 0}
  - curve:
      serializedVersion: 2
      m_Curve:
      - serializedVersion: 3
        time: 0
        value: 0
        inSlope: 0
        outSlope: 0
        tangentMode: 136
        weightedMode: 0
        inWeight: 0.33333334
        outWeight: 0.33333334
      - serializedVersion: 3
        time: 0.055555556
        value: 0
        inSlope: 0
        outSlope: 0
        tangentMode: 136
        weightedMode: 0
        inWeight: 0.33333334
        outWeight: 0.33333334
      - serializedVersion: 3
        time: 0.14444445
        value: 0
        inSlope: 0
        outSlope: 0
        tangentMode: 136
        weightedMode: 0
        inWeight: 0.33333334
        outWeight: 0.33333334
      - serializedVersion: 3
        time: 0.45555556
        value: 0
        inSlope: 0
        outSlope: 0
        tangentMode: 136
        weightedMode: 0
        inWeight: 0.33333334
        outWeight: 0.33333334
      - serializedVersion: 3
        time: 0.5222222
        value: 0
        inSlope: 0
        outSlope: 0
        tangentMode: 136
        weightedMode: 0
        inWeight: 0.33333334
        outWeight: 0.33333334
      m_PreInfinity: 2
      m_PostInfinity: 2
      m_RotationOrder: 4
    attribute: m_LocalPosition.x
    path: Hair
    classID: 4
    script: {fileID: 0}
  - curve:
      serializedVersion: 2
      m_Curve:
      - serializedVersion: 3
        time: 0
        value: -0.007
        inSlope: 0
        outSlope: 0
        tangentMode: 136
        weightedMode: 0
        inWeight: 0.33333334
        outWeight: 0.33333334
      - serializedVersion: 3
        time: 0.055555556
        value: 0.006
        inSlope: 0
        outSlope: 0
        tangentMode: 136
        weightedMode: 0
        inWeight: 0.33333334
        outWeight: 0.33333334
      - serializedVersion: 3
        time: 0.14444445
        value: -0.398
        inSlope: 0
        outSlope: 0
        tangentMode: 136
        weightedMode: 0
        inWeight: 0.33333334
        outWeight: 0.33333334
      - serializedVersion: 3
        time: 0.45555556
        value: -0.395
        inSlope: 0.031764615
        outSlope: 0.031764615
        tangentMode: 136
        weightedMode: 0
        inWeight: 0.33333334
        outWeight: 0.33333334
      - serializedVersion: 3
        time: 0.5222222
        value: -0.06
        inSlope: 0
        outSlope: 0
        tangentMode: 136
        weightedMode: 0
        inWeight: 0.33333334
        outWeight: 0.33333334
      m_PreInfinity: 2
      m_PostInfinity: 2
      m_RotationOrder: 4
    attribute: m_LocalPosition.y
    path: Hair
    classID: 4
    script: {fileID: 0}
  - curve:
      serializedVersion: 2
      m_Curve:
      - serializedVersion: 3
        time: 0
        value: 0
        inSlope: 0
        outSlope: 0
        tangentMode: 136
        weightedMode: 0
        inWeight: 0.33333334
        outWeight: 0.33333334
      - serializedVersion: 3
        time: 0.055555556
        value: 0
        inSlope: 0
        outSlope: 0
        tangentMode: 136
        weightedMode: 0
        inWeight: 0.33333334
        outWeight: 0.33333334
      - serializedVersion: 3
        time: 0.14444445
        value: 0
        inSlope: 0
        outSlope: 0
        tangentMode: 136
        weightedMode: 0
        inWeight: 0.33333334
        outWeight: 0.33333334
      - serializedVersion: 3
        time: 0.45555556
        value: 0
        inSlope: 0
        outSlope: 0
        tangentMode: 136
        weightedMode: 0
        inWeight: 0.33333334
        outWeight: 0.33333334
      - serializedVersion: 3
        time: 0.5222222
        value: 0
        inSlope: 0
        outSlope: 0
        tangentMode: 136
        weightedMode: 0
        inWeight: 0.33333334
        outWeight: 0.33333334
      m_PreInfinity: 2
      m_PostInfinity: 2
      m_RotationOrder: 4
    attribute: m_LocalPosition.z
    path: Hair
    classID: 4
    script: {fileID: 0}
  m_EulerEditorCurves: []
  m_HasGenericRootTransform: 0
  m_HasMotionFloatCurves: 0
  m_Events: []
