%YAML 1.1
%TAG !u! tag:unity3d.com,2011:
--- !u!1 &3460079048313928005
GameObject:
  m_ObjectHideFlags: 0
  m_CorrespondingSourceObject: {fileID: 0}
  m_PrefabInstance: {fileID: 0}
  m_PrefabAsset: {fileID: 0}
  serializedVersion: 6
  m_Component:
  - component: {fileID: 3460079048313928003}
  - component: {fileID: 3460079048313928004}
  - component: {fileID: 2464250305574646340}
  m_Layer: 0
  m_Name: Projectile 1
  m_TagString: Untagged
  m_Icon: {fileID: 0}
  m_NavMeshLayer: 0
  m_StaticEditorFlags: 0
  m_IsActive: 1
--- !u!4 &3460079048313928003
Transform:
  m_ObjectHideFlags: 0
  m_CorrespondingSourceObject: {fileID: 0}
  m_PrefabInstance: {fileID: 0}
  m_PrefabAsset: {fileID: 0}
  m_GameObject: {fileID: 3460079048313928005}
  m_LocalRotation: {x: 0, y: 0, z: 0, w: 1}
  m_LocalPosition: {x: 0, y: 0, z: 0}
  m_LocalScale: {x: 1, y: 1, z: 1}
  m_Children:
  - {fileID: 4848805323075703457}
  - {fileID: 1050365666070600910}
  m_Father: {fileID: 0}
  m_RootOrder: 0
  m_LocalEulerAnglesHint: {x: 0, y: 0, z: 0}
--- !u!212 &3460079048313928004
SpriteRenderer:
  m_ObjectHideFlags: 0
  m_CorrespondingSourceObject: {fileID: 0}
  m_PrefabInstance: {fileID: 0}
  m_PrefabAsset: {fileID: 0}
  m_GameObject: {fileID: 3460079048313928005}
  m_Enabled: 1
  m_CastShadows: 0
  m_ReceiveShadows: 0
  m_DynamicOccludee: 1
  m_MotionVectors: 1
  m_LightProbeUsage: 1
  m_ReflectionProbeUsage: 1
  m_RenderingLayerMask: 1
  m_RendererPriority: 0
  m_Materials:
  - {fileID: 10754, guid: 0000000000000000f000000000000000, type: 0}
  m_StaticBatchInfo:
    firstSubMesh: 0
    subMeshCount: 0
  m_StaticBatchRoot: {fileID: 0}
  m_ProbeAnchor: {fileID: 0}
  m_LightProbeVolumeOverride: {fileID: 0}
  m_ScaleInLightmap: 1
  m_PreserveUVs: 0
  m_IgnoreNormalsForChartDetection: 0
  m_ImportantGI: 0
  m_StitchLightmapSeams: 0
  m_SelectedEditorRenderState: 0
  m_MinimumChartSize: 4
  m_AutoUVMaxDistance: 0.5
  m_AutoUVMaxAngle: 89
  m_LightmapParameters: {fileID: 0}
  m_SortingLayerID: 0
  m_SortingLayer: 0
  m_SortingOrder: 2
  m_Sprite: {fileID: 21300000, guid: 3a65ac79d4e344c4bb303819c97ec57d, type: 3}
  m_Color: {r: 1, g: 0.9860146, b: 0.36320752, a: 1}
  m_FlipX: 0
  m_FlipY: 0
  m_DrawMode: 0
  m_Size: {x: 1, y: 1}
  m_AdaptiveModeThreshold: 0.5
  m_SpriteTileMode: 0
  m_WasSpriteAssigned: 1
  m_MaskInteraction: 0
  m_SpriteSortPoint: 0
--- !u!114 &2464250305574646340
MonoBehaviour:
  m_ObjectHideFlags: 0
  m_CorrespondingSourceObject: {fileID: 0}
  m_PrefabInstance: {fileID: 0}
  m_PrefabAsset: {fileID: 0}
  m_GameObject: {fileID: 3460079048313928005}
  m_Enabled: 1
  m_EditorHideFlags: 0
  m_Script: {fileID: 11500000, guid: a111ee20aabba01499d98c8639827510, type: 3}
  m_Name: 
  m_EditorClassIdentifier: 
  delay: 0.1
--- !u!114 &2164760547366211922
MonoBehaviour:
  m_ObjectHideFlags: 0
  m_CorrespondingSourceObject: {fileID: 0}
  m_PrefabInstance: {fileID: 0}
  m_PrefabAsset: {fileID: 0}
  m_GameObject: {fileID: 4848805323075703463}
  m_Enabled: 1
  m_EditorHideFlags: 0
  m_Script: {fileID: 11500000, guid: 6107cf97252c1324584286890661c16c, type: 3}
  m_Name: 
  m_EditorClassIdentifier: 
--- !u!1001 &353233929776097193
PrefabInstance:
  m_ObjectHideFlags: 0
  serializedVersion: 2
  m_Modification:
    m_TransformParent: {fileID: 3460079048313928003}
    m_Modifications:
    - target: {fileID: 753603487812352865, guid: 44cb2cbda3fa08749b980e34d6440a02,
        type: 3}
      propertyPath: m_Name
      value: NewSmoke_0
      objectReference: {fileID: 0}
    - target: {fileID: 753603487812352871, guid: 44cb2cbda3fa08749b980e34d6440a02,
        type: 3}
      propertyPath: m_LocalPosition.x
      value: 0.652
      objectReference: {fileID: 0}
    - target: {fileID: 753603487812352871, guid: 44cb2cbda3fa08749b980e34d6440a02,
        type: 3}
      propertyPath: m_LocalPosition.y
      value: -0.051
      objectReference: {fileID: 0}
    - target: {fileID: 753603487812352871, guid: 44cb2cbda3fa08749b980e34d6440a02,
        type: 3}
      propertyPath: m_LocalPosition.z
      value: 0
      objectReference: {fileID: 0}
    - target: {fileID: 753603487812352871, guid: 44cb2cbda3fa08749b980e34d6440a02,
        type: 3}
      propertyPath: m_LocalRotation.x
      value: -0
      objectReference: {fileID: 0}
    - target: {fileID: 753603487812352871, guid: 44cb2cbda3fa08749b980e34d6440a02,
        type: 3}
      propertyPath: m_LocalRotation.y
      value: -0
      objectReference: {fileID: 0}
    - target: {fileID: 753603487812352871, guid: 44cb2cbda3fa08749b980e34d6440a02,
        type: 3}
      propertyPath: m_LocalRotation.z
      value: -0
      objectReference: {fileID: 0}
    - target: {fileID: 753603487812352871, guid: 44cb2cbda3fa08749b980e34d6440a02,
        type: 3}
      propertyPath: m_LocalRotation.w
      value: 1
      objectReference: {fileID: 0}
    - target: {fileID: 753603487812352871, guid: 44cb2cbda3fa08749b980e34d6440a02,
        type: 3}
      propertyPath: m_RootOrder
      value: 1
      objectReference: {fileID: 0}
    - target: {fileID: 753603487812352871, guid: 44cb2cbda3fa08749b980e34d6440a02,
        type: 3}
      propertyPath: m_LocalEulerAnglesHint.x
      value: 0
      objectReference: {fileID: 0}
    - target: {fileID: 753603487812352871, guid: 44cb2cbda3fa08749b980e34d6440a02,
        type: 3}
      propertyPath: m_LocalEulerAnglesHint.y
      value: 0
      objectReference: {fileID: 0}
    - target: {fileID: 753603487812352871, guid: 44cb2cbda3fa08749b980e34d6440a02,
        type: 3}
      propertyPath: m_LocalEulerAnglesHint.z
      value: 0
      objectReference: {fileID: 0}
    m_RemovedComponents: []
  m_SourcePrefab: {fileID: 100100000, guid: 44cb2cbda3fa08749b980e34d6440a02, type: 3}
--- !u!4 &1050365666070600910 stripped
Transform:
  m_CorrespondingSourceObject: {fileID: 753603487812352871, guid: 44cb2cbda3fa08749b980e34d6440a02,
    type: 3}
  m_PrefabInstance: {fileID: 353233929776097193}
  m_PrefabAsset: {fileID: 0}
--- !u!1001 &1887924801070938710
PrefabInstance:
  m_ObjectHideFlags: 0
  serializedVersion: 2
  m_Modification:
    m_TransformParent: {fileID: 3460079048313928003}
    m_Modifications:
    - target: {fileID: 6447232010469042417, guid: e85ae9d5de5bc614692a0047cb3d10bb,
        type: 3}
      propertyPath: m_Name
      value: Bullet
      objectReference: {fileID: 0}
    - target: {fileID: 6447232010469042420, guid: e85ae9d5de5bc614692a0047cb3d10bb,
        type: 3}
      propertyPath: m_Enabled
      value: 1
      objectReference: {fileID: 0}
    - target: {fileID: 6447232010469042423, guid: e85ae9d5de5bc614692a0047cb3d10bb,
        type: 3}
      propertyPath: m_LocalPosition.x
      value: 0.43
      objectReference: {fileID: 0}
    - target: {fileID: 6447232010469042423, guid: e85ae9d5de5bc614692a0047cb3d10bb,
        type: 3}
      propertyPath: m_LocalPosition.y
      value: -0.038
      objectReference: {fileID: 0}
    - target: {fileID: 6447232010469042423, guid: e85ae9d5de5bc614692a0047cb3d10bb,
        type: 3}
      propertyPath: m_LocalPosition.z
      value: 0
      objectReference: {fileID: 0}
    - target: {fileID: 6447232010469042423, guid: e85ae9d5de5bc614692a0047cb3d10bb,
        type: 3}
      propertyPath: m_LocalRotation.x
      value: -0
      objectReference: {fileID: 0}
    - target: {fileID: 6447232010469042423, guid: e85ae9d5de5bc614692a0047cb3d10bb,
        type: 3}
      propertyPath: m_LocalRotation.y
      value: -0
      objectReference: {fileID: 0}
    - target: {fileID: 6447232010469042423, guid: e85ae9d5de5bc614692a0047cb3d10bb,
        type: 3}
      propertyPath: m_LocalRotation.z
      value: -0
      objectReference: {fileID: 0}
    - target: {fileID: 6447232010469042423, guid: e85ae9d5de5bc614692a0047cb3d10bb,
        type: 3}
      propertyPath: m_LocalRotation.w
      value: 1
      objectReference: {fileID: 0}
    - target: {fileID: 6447232010469042423, guid: e85ae9d5de5bc614692a0047cb3d10bb,
        type: 3}
      propertyPath: m_RootOrder
      value: 0
      objectReference: {fileID: 0}
    - target: {fileID: 6447232010469042423, guid: e85ae9d5de5bc614692a0047cb3d10bb,
        type: 3}
      propertyPath: m_LocalEulerAnglesHint.x
      value: 0
      objectReference: {fileID: 0}
    - target: {fileID: 6447232010469042423, guid: e85ae9d5de5bc614692a0047cb3d10bb,
        type: 3}
      propertyPath: m_LocalEulerAnglesHint.y
      value: 0
      objectReference: {fileID: 0}
    - target: {fileID: 6447232010469042423, guid: e85ae9d5de5bc614692a0047cb3d10bb,
        type: 3}
      propertyPath: m_LocalEulerAnglesHint.z
      value: 0
      objectReference: {fileID: 0}
    - target: {fileID: 6447232010469042426, guid: e85ae9d5de5bc614692a0047cb3d10bb,
        type: 3}
      propertyPath: accuracy
      value: 10
      objectReference: {fileID: 0}
    m_RemovedComponents: []
  m_SourcePrefab: {fileID: 100100000, guid: e85ae9d5de5bc614692a0047cb3d10bb, type: 3}
--- !u!1 &4848805323075703463 stripped
GameObject:
  m_CorrespondingSourceObject: {fileID: 6447232010469042417, guid: e85ae9d5de5bc614692a0047cb3d10bb,
    type: 3}
  m_PrefabInstance: {fileID: 1887924801070938710}
  m_PrefabAsset: {fileID: 0}
--- !u!4 &4848805323075703457 stripped
Transform:
  m_CorrespondingSourceObject: {fileID: 6447232010469042423, guid: e85ae9d5de5bc614692a0047cb3d10bb,
    type: 3}
  m_PrefabInstance: {fileID: 1887924801070938710}
  m_PrefabAsset: {fileID: 0}
